name,company_name,phone,email,alternate_no,lead_type,lead_source,requirement
Asadullah Khalid,,8979828755,asadullahtkd@gmail.com,,between_2:00_pm_to_6:00_pm,Facebook Lead,
Vimal Sing,,9667701078,vimalsingh60188@gmail.com,,between_2:00_pm_to_6:00_pm,Facebook Lead,
Prabhjot Bhatia,,7415842297,bhatiachinu123@gmail.com,,between_10:00_am_to_1:00_pm,Facebook Lead,
Ashish,,9412641723,darakushwaha55@gmail.com,,between_10:00_am_to_1:00_pm,Facebook Lead,
Uday Mulade,,9595244297,udaymulade@gmail.com,,between_2:00_pm_to_6:00_pm,Facebook Lead,
ADITYA KUMAR SINGH,,9955547065,adityajoy1008@gmail.com,,between_10:00_am_to_1:00_pm,Facebook Lead,
Supriya Gangawane,,9082266057,supriya0993g@gmail.com,,between_2:00_pm_to_6:00_pm,Facebook Lead,
Sumit Bhagat,,9555447575,sumit.bhagt@gmail.com,,between_2:00_pm_to_6:00_pm,Facebook Lead,
