name,company_name,phone,email,alternate_no,lead_type,lead_source,requirement
miraj ahmed,,7086521367,mirajnaqvi@gmail.com,,between_2:00_pm_to_6:00_pm,Facebook ,facebook_ads
Ritesh,,9643983178,riteshk.bhu@gmail.com,,between_10:00_am_to_1:00_pm,Facebook ,website_development
Jinto Sebastian,,9562520077,jintosebastian1995@gmail.com,,between_10:00_am_to_1:00_pm,Facebook ,e-commerce_website_
Gautam Sachdeva,,9873575663,gautamsachdeva14@gmail.com,,between_2:00_pm_to_6:00_pm,Facebook ,social_media_engagements
Mohammad Irfan Mohiuddin,,9885281801,info@bitehash.com,,between_2:00_pm_to_6:00_pm,Facebook ,e-commerce_website_
