sales_id,order_id,enquiry_id,sale_date,website,product,advance_payment,total_order_value,gst_applied,gst_amount,pending_payment,payment_mode,delivery_date,content_date,sale_month,resection_reason,rejected_project,user_id,added_by,added_date,modified_by,modified_date,company_email,company_contact
1,WC2023010700001,469,07-01-2023,royalmovers.in,,999,999,0,NULL,0,Gunjan Sir personal account,11-01-2023,0000-00-00,NULL,NULL,1,3,3,07-01-2023 7.39,3,25-01-2023 4.46,info@targetdgtal.com,8923301332
2,WC2023010700002,472,07-01-2023,,,2000,2000,0,NULL,0,Gunjan Sir personal account,07-01-2023,NULL,NULL,NULL,1,7,3,07-01-2023 7.46,NULL,NULL,zaverieventz@gmail.com,9867304001
3,WC2023010900003,502,09-01-2023,,Domain + 1 Mail Id,1700,1700,0,NULL,0,Paytm,11-01-2023,0000-00-00,NULL,NULL,1,7,7,09-01-2023 11.44,3,25-01-2023 6.52,Sachinkumar.harakuni@yahoo.com,8095690490
4,WC2023010900004,501,09-01-2023,http://3asresearchsolutions.in,Static(4-5 pages),999,1999,0,,0,,11-01-2023,0000-00-00,NULL,NULL,1,8,8,09-01-2023 11.56,8,16-06-2023 14.58,anupam_kaul@hotmail.com,9810584761
5,WC2023011200005,972,12-01-2023,http://bookwidus.in/,3 Lac Bulk Email,9000,9000,0,NULL,0,,12-01-2023,NULL,NULL,NULL,1,3,3,12-01-2023 7.59,NULL,NULL,ops@bookwidus.in,8803030103
6,WC2023011200006,2,12-01-2023,https://sbnutrition.in/,Ecom website,5500,5500,0,NULL,0,Asha phone pay,02-01-2023,NULL,NULL,NULL,1,3,3,12-01-2023 10.05,NULL,NULL,pradeepkverma@gmail.com,9555350015
7,WC2023011600007,831,16-01-2023,littlebumblebee.in,Dynamic(4-5 pages)+Domain+Hosting +1 Business mail id,2000,6500,0,NULL,4500,Gunjan sir Paytm,22-01-2023,0000-00-00,NULL,NULL,1,8,8,16-01-2023 5.30,8,30-01-2023 6.30,littlebumblebee316@gmail.com,9560144545
8,WC2023011700008,1073,17-01-2023,http://shivapackersandmovers.com/,Static website (4-5 pages)+ hosting,1000,2000,0,,0,Asha ma'am Phonepay,22-01-2023,18-01-2023,NULL,NULL,1,8,8,17-01-2023 4.23,8,30-01-2023 6.23,NULL,8053405545
9,WC2023011700009,1074,17-01-2023,https://globalpathinfotech.com/website/ayumax/,Pending payment Basic Ecommerce website ,5030,5030,0,NULL,0,HDFC Bank,17-01-2023,NULL,NULL,NULL,1,5,5,17-01-2023 5.28,3,17-01-2023 8.06, Shubhampharma2007@gmail.com,9829182736
10,WC2023011700010,1041,17-01-2023, wrinkle-free.co.in,Dynamic website (4-5 pages)+hosting+Domain+1 Business mail id,3250,6500,0,,0,Gunjan sir Paytm,26-01-2023,19-01-2023,NULL,NULL,1,8,8,17-01-2023 11.31,8,30-01-2023 6.24,rohitmaithil@gmail.com,9826299299
12,WC2023011800012,1103,18-01-2023,learning-wings.com/,SEO+SMO,6000,9000,0,,0,Gunjan Sir personal account,17-01-2023,17-01-2023,NULL,NULL,1,3,3,18-01-2023 4.22,NULL,NULL,,8586027123
13,WC2023011800013,1122,18-01-2023,Mindgyan.in,Dynamic website with hosting+ 1 business mail id ,3000,6000,0,,0,Axis,23-01-2023,19-01-2023,NULL,NULL,1,5,5,19-01-2023 4.11,5,19-01-2023 5.50,NULL,7905262292
14,WC2023011900014,1124,19-01-2023,thesaanvigupta.com,SMO,10000,10000,0,,0,cash,19-01-2023,19-01-2023,NULL,NULL,1,3,3,19-01-2023 10.03,3,17-02-2023 15.30,,8383899630
15,WC2023012100015,1068,21-01-2023,http://landoncorn.com,For static website with hosting,1250,3000,0,,0,Gunjan Sir personal account,23-01-2023,21-01-2023,NULL,NULL,1,3,3,21-01-2023 7.35,3,28-01-2023 4.40,sagarvd0506@gmail.com,9637059589
16,WC2023012100016,1503,21-01-2023,v.vibes.in,For logo,1000,1000,0,,0,Gunjan Sir Personal ac,21-01-2023,21-01-2023,NULL,NULL,1,3,3,21-01-2023 7.38,NULL,NULL,,999981229
17,WC2023012300017,1548,23-01-2023, www.aonesecurity.ca,For Dynamic website with hosting+2 mail ids,2900,5900,0,,0,Gunjan Sir Personal Ac,26-01-2023,23-01-2023,NULL,NULL,1,3,3,23-01-2023 9.31,NULL,NULL,bhaveshmethwani@gmail.com,12508998720
18,WC2023012300018,1549,23-01-2023,,GMB,1000,1000,0,,0,Paytm,25-01-2023,NULL,NULL,NULL,1,7,7,23-01-2023 11.56,NULL,NULL,NULL,9004898313
19,WC2023012300019,1550,23-01-2023,,Static Website + Hosting,1770,1500,1,270,0,HDFC,30-01-2023,26-01-2023,NULL,NULL,1,7,7,23-01-2023 12.09,NULL,NULL,NULL,9461313963
20,WC2023012400020,1579,24-01-2023,medspecialcom,Dynamic Website with hosting@12500/-,7000,7000,0,,0,,28-01-2023,24-01-2023,NULL,NULL,1,3,3,24-01-2023 4.59,3,24-01-2024 15.02,,9881396939
21,WC2023012400021,1580,24-01-2023,https://globalpathinfotech.com/website/ayumax/,Domain+Hosting,4200,4200,0,,0,HDFC,25-01-2023,0000-00-00,NULL,NULL,1,5,5,24-01-2023 5.24,5,24-01-2023 5.26,NULL,9829182736
26,WC2023012500026,1088,25-01-2023,Joshicommutec.com,Static website+Hosting+SSL  ,1500,3200,0,,0,Axis,30-01-2023,27-01-2023,NULL,NULL,1,5,5,25-01-2023 6.50,5,15-03-2023 10.33,joshiparag333@gmail.com,9714914999
27,WC2023012500027,1617,25-01-2023,,Dynamic website + Hosting,3540,7080,0,,0,HDFC,04-02-2023,27-01-2023,NULL,NULL,1,7,7,25-01-2023 6.57,NULL,NULL,NULL,8147277564
28,WC2023012500028,1618,25-01-2023,http://edupret.com/,Dynamic website with domain+hosting,10000,10000,0,,0,Cash,30-01-2023,24-01-2023,NULL,NULL,1,3,3,25-01-2023 10.56,NULL,NULL,,9953064356
29,WC2023012500029,1619,25-01-2023,,E-commerce Website Design in PHP -47000/-Shared Hosting Space - 5 GB 7000/- per YearReferral and,5900,59000,1,9000,0,Company ac,27-01-2023,0000-00-00,NULL,NULL,1,3,3,25-01-2023 11.09,3,19-06-2023 15.02,,9999939992
30,WC2023012500030,1561,27-01-2023,,Static website (4-5 pages),500,1000,0,,0,Gunjan sir Paytm,31-01-2023,28-01-2023,NULL,NULL,1,8,8,27-01-2023 5.28,8,30-01-2023 6.23,akshay65007@gmail.com,9662935240
31,WC2023012500031,1721,30-01-2023,https://safeguard-security.in/,Logo+Hosting,2000,2000,0,,0,Asha Phone pay,30-01-2023,30-01-2023,NULL,NULL,1,3,3,30-01-2023 7.55,NULL,NULL,,9870159867
32,WC2023012500032,1707,31-01-2023,pradeepvidhani.com,Dynamic (4-5  pages)+Hosting +Domain,2000,6000,0,,0,Gunjan sir paytm,10-02-2023,05-02-2023,NULL,NULL,1,8,8,31-01-2023 5.01,NULL,NULL,vidhaniomsai@gmail.com,9414125443
34,WC2023012500033,469,31-01-2023,http://www.flightbookingoncall.com,"Static Website
2 static website 4-5 pages- http://www.flightbookingoncall.com:2082/http://calltrave",1998,1998,0,,0,Gunjan Sir Personal Ac,31-01-2023,31-01-2023,NULL,NULL,1,3,3,31-01-2023 11.07,NULL,NULL,info@targetdgtal.com,8923301332
35,WC2023012500034,1756,01-02-2023,http://tiphinbox.com/,SSL,,1100,1,200,0,HDFC,01-02-2023,01-02-2023,NULL,NULL,1,8,8,01-02-2023 11.36,8,01-02-2023 11.49,NULL,8511381180
36,WC2023012500035,1758,01-02-2023,,Software Development QR Code (One Time),,10000,1,1800,0,,01-02-2023,01-02-2023,NULL,NULL,1,3,3,01-02-2023 16.10,1,02-02-2023 15.22,hqrl2016@gmail.com,1143555555
37,WC2023012500036,1781,02-02-2023,,software development,,5000,1,900,0,Company Ac,02-02-2023,02-02-2023,NULL,NULL,1,3,3,02-02-2023 16.04,3,02-02-2023 16.05,abcde@gmail.com,7249888402
39,WC2023012500037,1803,03-02-2023,Event-india.com,Dynamic website with domain+hosting+logo+3 pages extra,3000,7700,0,,4700,,03-02-2023,03-02-2023,NULL,client drop the project.,0,3,3,03-02-2023 13.01,3,06-11-2023 13.47,eventindiajpr@gmail.com,9829298388
40,WC2023012500038,1862,09-02-2023,janjirehospital.com,Dynamic 5 pages + Hosting + Domain,3000,6000,0,,0,Gunjan sir Paytm,15-02-2023,10-02-2023,NULL,NULL,1,8,8,09-02-2023 12.43,NULL,NULL,NULL,8600297373
41,WC2023012500039,2054,10-02-2023,,Dynamic website+ Domain+ Hosting ,23000,23000,0,,0,Gunjan sir Paytm,20-02-2023,13-02-2023,NULL,NULL,1,7,7,10-02-2023 14.41,NULL,NULL,NULL,8318016165
42,WC2023012500040,2055,10-02-2023,http://nirikshakk.in/,Remaining payment of E-commerce+ Dynamic +Hosting space,9000,9000,0,,0,Gunjan sir personal account,10-02-2023,10-02-2023,NULL,NULL,1,8,8,10-02-2023 17.22,NULL,NULL,amansolanki5254@gmail.com,9891256009
44,WC2023012500041,2104,13-02-2023,13-02-2023,Dynamic website (  5 pages ),2000,4000,0,,0,Gunjan sir personal account paytm,15-02-2023,13-02-2023,NULL,NULL,1,8,8,13-02-2023 14.23,3,13-02-2023 14.34,,9891390301
47,WC2023012500042,2058,14-02-2023,dynamicslogistic.com,4-5 pages Static website+ Domain + Hosting+ 1 business mail id  ,1500,3000,0,,1500,paytm,17-02-2023,15-02-2023,NULL,NULL,1,5,5,14-02-2023 11.11,NULL,NULL,dynamiclogistics.mumbai@gmail.com,8879099417
48,WC2023012500043,2116,14-02-2023,v.vibes.in,4-5 pages static website,1300,2600,0,,0,Gunjan Sir Personal A/c,16-02-2023,14-02-2023,NULL,NULL,1,3,3,14-02-2023 11.11,NULL,NULL,Info@vvibes.in,8700137394
49,WC2023012500044,2117,15-02-2023,,4-5 Pages Dynamic website with logo+hosting@7000/-,3500,7000,0,,3500,Asha Phone Pay,18-02-2023,15-02-2023,NULL,client drop the project.,0,3,3,15-02-2023 12.11,NULL,NULL,gaurav@mamtaengineering.co.in,9958547989
50,WC2023012500045,2214,15-02-2023,kapoorbeverages.com,"Mail id, Mail Id OTP",1610,1610,0,,0,Paytm,15-02-2023,NULL,NULL,NULL,1,7,7,15-02-2023 14.20,NULL,NULL,NULL,9821899419
51,WC2023012500046,2126,15-02-2023, rastriyahindusewak-sangh.in,"Static (5 pages)+ Domain + Hosting- 2500/-
",1500,2500,0,,0,Paytm gunjan sir personal account,20-02-2023,16-02-2023,NULL,NULL,1,8,8,15-02-2023 17.45,NULL,NULL,hindusewakdheeraj@gmail.com,7906683408
52,WC2023012500047,2227,17-02-2023,www.agoiludhiana.in,Ludhiyana / Dyanmic + Domain + Hosting + Admin login + Student login ,6000,13000,0,,0,Paytm Gunjan sir personal account,25-02-2023,13-02-2023,NULL,NULL,1,8,8,17-02-2023 14.04,NULL,NULL,drparminders@gmail.com,9815141685
54,WC2023012500048,2248,17-02-2023,,4-5 pages static website+hosting,750,2200,0,,0,Gunjan Sir personal ac,20-02-2023,17-02-2023,NULL,NULL,1,3,3,17-02-2023 15.14,3,24-02-2023 16.13,skgraphics@gmail.com,9428643786
55,WC2023012500049,2263,18-02-2023,,Static website http://www.delhibusiness.in/design/clients/Idee-Planet/+domain renewal,2200,2200,0,,0,Gunjan Sir Personal ac,21-02-2023,18-02-2023,NULL,NULL,1,3,3,18-02-2023 11.03,3,18-02-2023 11.12,ideeplanet@gmail.com,8152931203
56,WC2023012500050,2264,18-02-2023, atranspackermovers.com,Static + Domain + Hosting + 1 Business mail id total order value 3300/- after 1500 advance client backout,1500,1500,0,,0,,22-02-2023,18-02-2023,NULL,NULL,1,8,8,18-02-2023 11.58,8,14-08-2023 17.03,NULL,9050660058
57,WC2023012500051,1860,18-02-2023,jaynarayanindustries.com,Static +Domain(.com)+ hosting,2800,2800,0,,0,Personal account,26-06-2023,20-06-2023,NULL,NULL,1,8,8,18-02-2023 15.34,8,20-06-2023 10.30,vipinagpur78@gmail.com,9960747404
58,WC2023012500052,2309,21-02-2023,,"Domain Renewal: evergreenbarandrestaurant.com 
Email Boxes 1GB 
Web Hosting 
Domain: genesisfitne",4100,4100,0,,0,Gunjan Sir Personal A/c,21-02-2023,21-02-2023,NULL,NULL,1,3,3,21-02-2023 11.50,NULL,NULL,sayyam.mhalsekar@gmail.com,9822166968
59,WC2023012500053,2275,21-02-2023, givinternationalmanpower.com,"Domain(.com)
",1200,1200,0,,0,paytm Gunjan sir personal account,21-02-2023,21-02-2023,NULL,NULL,1,8,8,21-02-2023 13.57,NULL,NULL,Sitaindia1989@gmail.com,9458277722
60,WC2023012500054,2267,21-02-2023,Faai.in,Static website +Domain+ Hosting,2000,2500,0,,0,,27-02-2023,23-02-2023,NULL,NULL,1,7,7,21-02-2023 15.31,NULL,NULL,rahulinso@gmail.com,9818735014
61,WC2023012500055,2310,21-02-2023,,Google my listing,2000,2000,0,,0,paytm gunjan sir personal account,21-02-2023,21-02-2023,NULL,NULL,1,5,5,21-02-2023 17.17,NULL,NULL,NULL,9650589991
62,WC2023012500056,2324,22-02-2023,Www.ahmadnor.com,Dynamic Website,26757,26757,0,,0,,01-03-2023,23-02-2023,NULL,NULL,1,7,7,22-02-2023 12.06,NULL,NULL,NULL,60194807895
63,WC2023012500057,2325,22-02-2023,,Social Media Promotions,2000,2000,0,,0,,22-02-2023,22-02-2023,NULL,NULL,1,3,3,22-02-2023 12.29,3,24-01-2024 14.58,tandoorbarandgrill@gmail.com,9950186141
64,WC2023012500058,2326,22-02-2023, allattestations.in,Dynamic 5 Pages,1750,3500,0,,0,,28-02-2023,22-02-2023,NULL,NULL,1,8,8,22-02-2023 13.03,NULL,NULL,NULL,9212106701
65,WC2023012500059,2320,22-02-2023,,Dynamic website + Domain+ Hosting,3250,6500,0,,0,Paytm,28-02-2023,24-02-2023,NULL,NULL,1,7,7,22-02-2023 17.33,NULL,NULL,goodwillpharmaceutical@gmail.com,9888998228
66,WC2023012500060,2267,23-02-2023,,Static website +Domain+ Hosting/New Order requirement Membership card Design with Backend ,2000,2500,0,,0,Paytm,24-02-2023,NULL,NULL,NULL,1,7,7,23-02-2023 16.17,NULL,NULL,rahulinso@gmail.com,9818735014
67,WC2023012500061,2353,24-02-2023,,Cab 24*7 Hosting charges,1500,1500,0,,0,Gunjan Sir Personal Account,24-02-2023,24-02-2023,NULL,NULL,1,3,3,24-02-2023 11.15,NULL,NULL,cabgoingon@gmail.com,9913430531
68,WC2023012500062,2373,25-02-2023,,Data Entry Software+QR+Salary Sheet+Scanner+hosting Space Changes,5000,11800,0,,0,Company A/c,25-02-2023,25-02-2023,NULL,NULL,1,3,3,25-02-2023 12.21,NULL,NULL,vikas@voneindia.com,8447632556
69,WC2023012500063,2409,27-02-2023,elegantekids.in,E-commerce + Hosting,2000,13000,0,,0,Paytm gunjan sir personal account,10-03-2023,28-02-2023,NULL,NULL,1,8,8,27-02-2023 17.40,NULL,NULL,NULL,9873887334
70,WC2023012500064,2422,28-02-2023, shreeminfratech.com,Domain,1416,1200,1,216,0,,01-03-2023,NULL,NULL,NULL,1,7,7,28-02-2023 10.39,NULL,NULL,NULL,9403393985
71,WC2023012500065,1782,28-02-2023,http://look4newjobs.co.in,"1 Page Dynamic Website with CMS Panel to 
edit the pages with 2 mail ids + First year 
hosting fre",3500,6000,1,1080,3580,Company Account,06-03-2023,01-03-2023,NULL,NULL,1,5,5,28-02-2023 9.45,NULL,NULL,akash4sure@gmail.com,9953468634
72,WC2023012500066,2461,02-03-2023,Smtrust.org.in ,Logo change and contact number,500,500,0,,0,Gunjan sir personal account,02-03-2023,02-03-2023,NULL,NULL,1,8,8,02-03-2023 15.14,NULL,NULL,NULL,9662935240
73,WC2023012500067,2414,03-03-2023,NULL,"Static website (5 Pages) + hosting + Domain
",1500,3186,1,486,0,NULL,26-03-2023,07-03-2023,NULL,NULL,1,8,8,03-03-2023 9.17,3,24-03-2023 13.30,dhirendranath1978@gmail.com,9604469037
75,WC2023012500068,2343,03-03-2023,http://Mypolicycare.com,Surat /Health insurance Dynamic website with domain+hosting with admin login+customer login+pdf file,6500,13000,0,,6500,Gunjan Sir Personal Account,17-03-2023,10-03-2023,NULL,Payment gatway issue,0,3,3,03-03-2023 15.44,3,10-03-2023 13.16,Rkhadiya9@gmail.com,7874488833
76,WC2023012500069,1123,06-03-2023,,E-commerce Website ,3000,3000,0,,0,,26-03-2023,15-03-2023,NULL,NULL,1,3,3,06-03-2023 11.27,3,24-01-2024 14.54,,9766258461
78,WC2023012500070,2537,10-03-2023,,Renewal Domain: thekrishnaconsultants.com with 1 mail id +hosting space,3505,3504.6,1,534.6,-0.4,Company account,10-03-2023,0000-00-00,NULL,NULL,1,3,3,10-03-2023 10.17,3,28-03-2023 16.40,lalkishori746@gmail.com,9065283352
79,WC2023012500071,2538,13-03-2023,NULL,Blog Page,2000,4130,1,630,0,NULL,26-03-2023,13-03-2023,NULL,NULL,1,3,3,13-03-2023 12.10,3,24-03-2023 13.29,hr@manzilnaukrialerts.com,8859260626
80,WC2023012500072,2320,14-03-2023,,GMB,1000,2000,0,,1000,Paytm,20-03-2023,0000-00-00,NULL,NULL,1,7,7,14-03-2023 16.45,3,05-04-2023 13.56,goodwillpharmaceutical@gmail.com,9888998228
81,WC2023012500073,2567,15-03-2023,,"Service Charges for Paid ad promotion over Facebook- 5000/-
Facebook daily expense amount over Face",5000,5000,0,,0,Gunjan Sir Personal Account,15-03-2023,15-03-2023,NULL,NULL,1,3,3,15-03-2023 15.16,NULL,NULL,rajiv.jswl@gmail.com,9823217637
82,WC2023012500074,2568,15-03-2023,NULL,Website maintenance ,10000,11800,1,1800,0,NULL,26-03-2023,0000-00-00,NULL,NULL,1,7,7,15-03-2023 16.32,3,24-03-2023 13.28,NULL,8275342003
83,WC2023012500075,2526,17-03-2023,NULL,5 pages Dynamic website with Hosting ,3500,7080,1,1080,0,NULL,26-03-2023,18-03-2023,NULL,NULL,1,5,5,17-03-2023 12.56,3,24-03-2023 13.28,NULL,8542064182
84,WC2023012500076,2676,20-03-2023,,4 pages static website,1000,1770,1,270,0,,26-03-2023,20-03-2023,NULL,NULL,1,8,8,20-03-2023 17.47,8,21-04-2023 10.05,NULL,9891390301
85,WC2023012500077,2699,21-03-2023,,Static website 5 pages + Hosting + Domain,1500,3186,1,486,1686,,26-03-2023,21-03-2023,NULL,NULL,1,8,8,21-03-2023 12.40,8,21-03-2024 15.36,NULL,8810541214
86,WC2023012500078,2638,22-03-2023,,Static 4 pages + Hosting,750,1770,1,270,0,,26-03-2023,23-03-2023,NULL,NULL,1,8,8,22-03-2023 9.49,3,28-03-2023 11.21,bigcdma@gmail.com,9555777888
87,WC2023012500079,2721,22-03-2023,NULL,Email Support,2360,2360,1,360,0,NULL,26-03-2023,0000-00-00,NULL,NULL,1,3,3,22-03-2023 11.26,3,24-03-2023 13.23,realledelhi@gmail.com,7838113316
90,WC2023012500080,2668,23-03-2023,,Dynamic website with domain+hosting+logo+ 3500 (2975/-words Content cost is extra 85 ppw share detai,3000,13775.32,1,2101.32,0.32,,26-03-2023,0000-00-00,NULL,NULL,1,3,3,23-03-2023 12.23,3,12-04-2023 15.21,asksehdev.ss@gmail.com,9811419240
91,WC2023012500081,2929,25-03-2023,,Dynamic website 6 Pages + Domain + Hosting + mail id ,4000,9440,1,1440,0,Company account,03-04-2023,25-03-2023,NULL,NULL,1,7,7,25-03-2023 15.52,3,29-03-2023 14.50,NULL,7503080009
92,WC2023012500082,2700,29-03-2023,,"Dynamic website with domain, hosting 13216/- with gst Final proposal share with customer she'll di",6608,13216,1,2016,0,Company account,31-03-2023,0000-00-00,NULL,NULL,1,3,3,29-03-2023 12.46,3,29-03-2023 12.47,windsorhouse.shimla@gmail.com,9650023506
93,WC2023012500083,2966,31-03-2023,interior,Dynamic website 6 pages + Hosting ,3000,6490,1,990,0,company account,14-04-2023,01-04-2023,NULL,NULL,1,7,7,31-03-2023 17.22,7,13-04-2023 13.13,uniquefurniture842@gmail.com,9466122235
94,WC2023012500084,2664,04-04-2023,www.vidyapeethinternational.com,Dynamic 7 pages + Hosting + Admin login + Student login ( mark sheet download ),6000,13000,0,0,7000,Gunjan sir personal account,13-04-2023,06-04-2023,NULL,NULL,1,8,8,04-04-2023 10.57,NULL,NULL,purushottamkumr@gmail.com,9819792128
95,WC2023012500085,3171,12-04-2023,savyconsultancyservices.com,Dynamic website 5 pages + Domain + Hosting ,3500,7080,1,1080,0,company account,17-04-2023,13-04-2023,NULL,NULL,1,8,8,12-04-2023 17.09,8,12-04-2023 17.27,NULL,8383806783
102,WC2023012500086,3179,13-04-2023,,Content + Gmb,2775,2775,0,0,0,Gunjan Sir personal account,11-04-2023,11-04-2023,NULL,NULL,1,7,7,13-04-2023 13.17,NULL,NULL,NULL,9466122235
105,WC2023012500087,3180,13-04-2023,,Tracking Software= 20000,20000,20000,0,,0,Gunjan Sir Personal Account,26-04-2023,13-04-2023,NULL,NULL,1,3,3,13-04-2023 14.00,3,17-05-2023 9.56,info@dicsexpress.com,8725011620
106,WC2023012500088,1920,13-04-2023,www.getregalo.com,E-commerce website with basic features,4000,11000,0,0,7000,Gunjan sir personal account,26-04-2023,17-04-2023,NULL,NULL,1,8,8,13-04-2023 17.42,NULL,NULL,,8445346734
107,WC2023012500089,3023,14-04-2023,www.shabbiragro.com,Static 5 pages + Hosting + Domain + 1 Business mail id ,2625,5251,1,801,0,Company account,19-04-2023,15-04-2023,NULL,NULL,1,8,8,14-04-2023 12.37,8,21-04-2023 10.01,altafkhatib056@gmail.com,7499551620
108,WC2023012500090,3224,17-04-2023,,"Certificate project 10,000+18% gst",5000,11800,1,1800,0,Company ac,19-04-2023,15-04-2023,NULL,NULL,1,3,3,17-04-2023 12.19,NULL,NULL,Sunillatawa@gmail.com,9540990999
109,WC2023012500091,3033,19-04-2023,dreamvisasolutions.com,landing page + Hosting ,1770,1770,1,270,0,company account,24-04-2023,21-04-2023,NULL,NULL,1,8,8,19-04-2023 15.51,NULL,NULL,Riyaocean@gmail.com,7042775704
110,WC2023012500092,3074,19-04-2023,yavapaints.com,Static 5 pages + Hosting + Domain ,2655,5310,1,810,0,company account ,25-04-2023,20-04-2023,NULL,NULL,1,8,8,19-04-2023 17.08,NULL,NULL,pankaj.kumar@yavagroup.com,8901564502
112,WC2023012500093,3261,21-04-2023,,Your demo- 2nd phase,14000,65000,0,,51000,Gunjan Sir Personal ac,11-05-2023,21-04-2023,NULL,Call not picked.,1,1,3,21-04-2023 14.00,1,24-01-2024 15.06,romilg4ever@gmail.com,7411001312
113,WC2023012500094,3267,22-04-2023,,Domain+hosting renewal,2478,2478,1,378,0,Company ac,22-04-2023,22-04-2023,NULL,NULL,1,3,3,22-04-2023 12.20,NULL,NULL,rajiv.jswl@gmail.com,9823217637
120,WC2023012500095,3292,24-04-2023,,SEO+SMO,7000,7000,0,,0,Company ac,24-04-2023,0000-00-00,NULL,NULL,1,3,3,24-04-2023 16.06,3,24-01-2024 14.52,info@ghe-jcbtraining.com,7973118638
123,WC2023012500096,3334,27-04-2023,thezarainterior.com,SSL,1200,1200,0,0,0,Gunjan sir personal account,27-04-2023,27-04-2023,NULL,NULL,1,8,8,27-04-2023 10.19,NULL,NULL,NULL,9466122235
124,WC2023012500097,3351,01-05-2023,drbrcmedicalcenter.com,Domain shift + SSL,2500,2500,0,0,0,Gunjan sir personal account,01-05-2023,01-05-2023,NULL,NULL,1,8,8,01-05-2023 10.49,NULL,NULL,NULL,9058981658
125,WC2023012500098,3195,03-05-2023,www.aandavan.in,Static 7 pages + Hosting ,2950,2950,1,450,0,Company account (NEFT),09-05-2023,04-05-2023,NULL,NULL,1,8,8,03-05-2023 9.39,NULL,NULL,jjandassociates18@gmail.com,9820104562
126,WC2023012500099,3363,03-05-2023,http://supremesolvex.com/,Static website 4 pages ,1999,1999,0,0,0,Gunjan Sir Personal ac,05-05-2023,03-05-2023,NULL,NULL,1,3,3,03-05-2023 11.43,NULL,NULL,,9987893810
127,WC2023012500100,2707,03-05-2023,taxationmasters.in,Static 4 pages + hosting ,1770,1770,1,270,0,Company account,09-05-2023,04-05-2023,NULL,NULL,1,8,8,03-05-2023 14.42,NULL,NULL,info.taxationmasters@gmail.com,9354856791
128,WC2023012500101,3370,04-05-2023,,SEO Promotions,5000,11800,1,1800,6800,Company account,31-05-2023,0000-00-00,NULL,Sir client,0,1,3,04-05-2023 12.36,1,24-01-2024 15.06,,9625441073
129,WC2023012500102,3371,04-05-2023,visawala.com,Dynamic website and webapp,10000,37760,1,5760,27760,Company ac,18-05-2023,0000-00-00,NULL,Sir client,0,1,3,04-05-2023 12.40,1,24-01-2024 14.48,,9811097577
130,WC2023012500103,3267,05-05-2023,Dreamcatchersinteriondecorz.com,Testimonial page,500,500,0,,0,Gunjan Sir Personal Ac,06-05-2023,05-05-2023,NULL,NULL,1,3,3,05-05-2023 16.21,3,05-05-2023 16.22,rajiv.jswl@gmail.com,9823217637
131,WC2023012500104,3366,06-05-2023,nextgenbudgetcabservices.com,Dynamic website with domain+hosting,1500,7668.82,1,1169.82,6168.82,Company ac,18-05-2023,NULL,NULL,"Client drop the project, Fund issue.",0,3,3,06-05-2023 9.21,NULL,NULL,budgetcabsservice@gmail.com,9860689292
132,WC2023012500105,3392,06-05-2023,webcomindia.biz,1 Lac Bulk Email,8850,8850,1,1350,0,company ac,05-05-2023,NULL,NULL,NULL,1,3,3,06-05-2023 9.34,NULL,NULL,,8486104115
134,WC2023012500106,3422,10-05-2023,,Dynamic website with payment gatway integartion,11800,11800,1,1800,0,Company ac,18-05-2023,NULL,NULL,NULL,1,3,3,10-05-2023 9.29,NULL,NULL,,8178996447
135,WC2023012500107,3447,15-05-2023,law-n-laws.com,Dynamic website + Hosting + 1 Business mail id ,5900,5900,1,900,0,Company account ( Paytm ),19-05-2023,16-05-2023,NULL,NULL,1,8,8,15-05-2023 16.15,NULL,NULL,NULL,9106512562
137,WC2023012500108,2567,18-05-2023,Dreamcatchersinteriondecorz.com,"Service Charges for Paid ad promotion over Facebook- 4500/-
SMO-4000/-",8500,8500,0,0,0,Gunjan Sir Personal ac,18-06-2023,18-05-2023,NULL,NULL,1,3,3,18-05-2023 12.42,NULL,NULL,rajiv.jswl@gmail.com,9823217637
138,WC2023012500109,3363,19-05-2023,http://manasveeholidays.com:,http://manasveeholidays.com- website shifting,1200,1200,0,0,0,Gunjan Sir Personal ac,19-05-2023,19-05-2023,NULL,NULL,1,3,3,19-05-2023 9.56,NULL,NULL,,9987893810
139,WC2023012500110,3180,19-05-2023,,Tracking Software changes,600,600,0,0,0,Gunjan Sir Personal ac,19-05-2023,19-05-2023,NULL,NULL,1,3,3,19-05-2023 14.02,NULL,NULL,info@dicsexpress.com,8725011620
140,WC2023012500111,2464,23-05-2023,,"1 Application for purchase management,Vendor Management & Project Expensemanagement - 85,000/-",130390,130390,1,19890,0,Company ac,10-06-2023,23-05-2023,NULL,NULL,1,3,3,23-05-2023 10.03,3,29-05-2023 17.12,hr.hindiko@gmail.com,9958833208
141,WC2023012500112,3063,23-05-2023,saaksharabhiyaan.com,Dynamic 15 pages website ,12500,23995.3,1,3660.3,11495.3,Bank Transfer,29-05-2023,24-05-2023,NULL,NULL,1,8,8,23-05-2023 17.27,8,14-12-2023 15.58,citpservice@gmail.com,9718589589
142,WC2023012500113,3033,23-05-2023,dreamvisasolutions.com,GMB + Address Change ,1000,2000,0,0,1000,Gunjan sir Personal Account,17-05-2023,17-05-2023,NULL,NULL,1,8,8,23-05-2023 17.35,NULL,NULL,Riyaocean@gmail.com,7042775704
143,WC2023012500114,3180,25-05-2023,,Tracking Software changes,4000,4000,0,0,0,Gunjan Sir Personal ac,25-05-2023,25-05-2023,NULL,NULL,1,3,3,25-05-2023 9.29,NULL,NULL,info@dicsexpress.com,8725011620
144,WC2023012500115,3509,25-05-2023,https://www.procosventures.com/,Static website hosting charges - 800,800,800,0,0,0,Gunjan Sir Personal ac,25-05-2023,25-05-2023,NULL,NULL,1,3,3,25-05-2023 11.51,NULL,NULL,sales@procosventures.com,7506693293
145,WC2023012500116,3267,25-05-2023,,Email id renewal,531,531,1,81,0,Gunjan Sir Personal ac,25-05-2023,25-05-2023,NULL,NULL,1,3,3,25-05-2023 12.30,NULL,NULL,rajiv.jswl@gmail.com,9823217637
146,WC2023012500117,2570,27-05-2023,affix.in,Static 5 pages + Hosting,2832,2832,1,432,0,Paytm( Company account ),01-06-2023,27-05-2023,NULL,NULL,1,8,8,27-05-2023 10.47,8,12-07-2023 10.22,surendra23m1986@gmail.com,8340562676
147,WC2023012500118,1072,27-05-2023,asmpackers.com,Static website (4-5 pages)+ Hosting + domain,3000,3000,0,,0,Paytm ( Gunjan sir personal account ),02-06-2023,29-05-2023,NULL,NULL,1,8,8,27-05-2023 14.30,8,03-06-2023 9.57,NULL,8053405545
148,WC2023012500119,1103,29-05-2023,,Domain+hosting+1 email id renewal,5000,3717,1,567,-1283,Company ac,03-06-2023,0000-00-00,NULL,NULL,1,3,3,29-05-2023 10.02,3,08-11-2023 13.11,,8586027123
149,WC2023012500120,3520,29-05-2023,,School software ,56250,265500,1,40500,209250,Company ac,30-06-2023,0000-00-00,NULL,Sir client,1,1,3,29-05-2023 11.36,1,24-01-2024 14.47,,9997656825
150,WC2023012500121,3521,29-05-2023,,Dynamic 5 Pages + Hosting + SSL ,6000,6000,0,0,0,Phonepay ( Gunjan sir Personal Account ),05-06-2023,31-05-2023,NULL,NULL,1,8,8,29-05-2023 17.33,NULL,NULL,NULL,7073242211
151,WC2023012500122,3180,30-05-2023,,Tracking Software changes,6500,6500,0,0,0,Gunjan Sir Personal ac,30-05-2023,26-05-2023,NULL,NULL,1,3,3,30-05-2023 14.13,NULL,NULL,info@dicsexpress.com,8725011620
152,WC2023012500123,3381,31-05-2023,supportindiasolutions.com,Static 5 pages + Hosting ,1500,3000,0,0,1500,Gunjan sir Personal account ,05-06-2023,31-05-2023,NULL,NULL,1,8,8,31-05-2023 16.35,NULL,NULL,sinanms313@gmail.com,9008697965
153,WC2023012500124,2538,01-06-2023,,Domain+1 mail id renewal,1947,1947,1,297,0,Company ac,01-06-2023,01-06-2023,NULL,NULL,1,3,3,01-06-2023 11.20,NULL,NULL,hr@manzilnaukrialerts.com,8859260626
154,WC2023012500125,3514,01-06-2023,,Static website,11800,11800,1,1800,0,Company ac,01-06-2023,01-06-2023,NULL,NULL,1,3,3,01-06-2023 12.46,NULL,NULL,,9911717776
155,WC2023012500126,3515,03-06-2023,https://www.rajvignas.in/,Dynamic 5 pages + Hosting + Domain,7316,7316,1,1116,0,Company account ,07-06-2023,03-06-2023,NULL,NULL,1,8,8,03-06-2023 14.05,8,09-06-2023 12.46,kkotreshangadi@gmail.com,9902557754
156,WC2023012500127,2538,06-06-2023,,Hosting+1 mail id renewal,1711,1711,1,261,0,Company ac,06-06-2023,06-06-2023,NULL,NULL,1,3,3,06-06-2023 10.42,NULL,NULL,hr@manzilnaukrialerts.com,8859260626
157,WC2023012500128,3564,07-06-2023,,Static website Hosting Renewal charges,1416,1416,1,216,0,Company ac,07-06-2023,07-06-2023,NULL,NULL,1,3,3,07-06-2023 14.55,NULL,NULL,,9717362310
158,WC2023012500129,2721,07-06-2023,,5 gmail id renewal,17700,17700,1,2700,0,Company ac,07-06-2023,07-06-2023,NULL,NULL,1,3,3,07-06-2023 16.51,NULL,NULL,realledelhi@gmail.com,7838113316
159,WC2023012500130,2550,14-06-2023,http://hiratours.com/, Enquiry form only,1000,1000,0,0,0,Rima mam Account,15-06-2023,14-06-2023,NULL,NULL,1,8,8,14-06-2023 17.23,NULL,NULL,ferozkk1984@gmail.com,8090426001
160,WC2023012500131,3180,16-06-2023,,Tracking Software changes,1500,1500,0,0,0,Gunjan Sir Personal ac,16-06-2023,16-06-2023,NULL,NULL,1,3,3,16-06-2023 12.02,NULL,NULL,info@dicsexpress.com,8725011620
161,WC2023012500132,2567,20-06-2023,,"Renewal Service Charges for Paid ad promotion over Facebook- 4500/-
SMO-4000/-",8500,8500,0,0,0,RIMA MAM,19-07-2023,20-06-2023,NULL,NULL,1,3,3,20-06-2023 10.25,NULL,NULL,rajiv.jswl@gmail.com,9823217637
162,WC2023012500133,3622,21-06-2023,,"Domain 1200, 1 email-600, hosting-1500 website- 6000",4000,9300,0,0,5300,Cash,21-06-2023,27-06-2023,NULL,NULL,1,1,1,21-06-2023 16.05,NULL,NULL,,7206760058
163,WC2023012500134,2046,27-06-2023,https://www.1stopsolution.in.net/,Dynamic 5 pages + Registration link direction,7080,7080,1,1080,0,Company account,03-07-2023,28-06-2023,NULL,NULL,1,8,8,27-06-2023 13.14,NULL,NULL,pallaveebhopale@gmail.com,9702364890
164,WC2023012500135,3577,29-06-2023,www.hmcotsyn.com,Static 6 pages ,1500,3540,1,540,2040,Company account,05-07-2023,30-06-2023,NULL,NULL,1,8,8,29-06-2023 16.38,8,30-06-2023 10.06,oswalchirag@gmail.com,9872577555
165,WC2023012500136,997,01-07-2023,http://orriltrade.in/,static 5 pages + hosting,3540,3540,1,540,0,paytm,07-07-2023,10-07-2023,NULL,NULL,1,8,8,01-07-2023 15.24,8,24-07-2023 14.21,nezlaa03@gmail.com,7045481757
166,WC2023012500137,3688,01-07-2023,divyajagatsansthaan.com,Dynamic 5 pages + Hosting + Domain,7670,7670,1,1170,0,phonepay,11-07-2023,05-07-2023,NULL,NULL,1,8,8,01-07-2023 16.04,NULL,NULL,naileshkapadia@gmail.com,9173443258
167,WC2023012500138,3730,03-07-2023,wishfullhub.com,E-commerce + Domain + Hosting + 1 Business mail id ,17700,17700,1,2700,0,Bank transfer,17-07-2023,05-07-2023,NULL,NULL,1,8,8,03-07-2023 15.23,NULL,NULL,NULL,9599304003
168,WC2023012500139,3742,04-07-2023,,Static website hosting renewal+changes,1550,1550,0,0,0,Rima Mam,04-07-2023,07-07-2023,NULL,NULL,1,3,3,04-07-2023 12.07,NULL,NULL,,9634662222
169,WC2023012500140,3901,05-07-2023,,Website changes,2360,2360,1,360,0,Company ac,05-07-2023,05-07-2023,NULL,NULL,1,3,3,05-07-2023 15.41,NULL,NULL,,9871195934
170,WC2023012500141,3928,07-07-2023,,Hosting Renewal charges,2360,2360,1,360,0,Company ac,07-07-2023,07-07-2023,NULL,NULL,1,3,3,07-07-2023 9.44,NULL,NULL,,9990084367
171,WC2023012500142,3731,10-07-2023, Melkhetpower.in,"Dynamic Website with CMS Panel to edit 
the pages (10-12 pages) in PHP with logo+Hosting
15,000/- ",20060,20060,1,3060,0,Company ac,21-07-2023,NULL,NULL,NULL,1,3,3,10-07-2023 12.58,NULL,NULL,,9872295934
172,WC2023012500143,3959,11-07-2023,profilacoscare.com,Domain: profilacoscare.com +hosting+1mail id+ssl,4189,4189,1,639,0,Company ac,11-07-2023,NULL,NULL,NULL,1,3,3,11-07-2023 11.38,NULL,NULL,NULL,7506693293
174,WC2023012500144,3733,13-07-2023,,Bulk Mail 1 Lac@5000/-,5900,5900,1,900,0,Company ac,13-07-2023,NULL,NULL,NULL,1,3,3,13-07-2023 9.43,NULL,NULL,,8130704871
175,WC2023012500145,3982,14-07-2023,http://mezandental.com,Dental clinic-Dynamic website with domain+hosting,7669,7668.82,1,1169.82,-0.18,Company ac,21-07-2023,0000-00-00,NULL,NULL,1,3,3,14-07-2023 16.15,3,14-07-2023 16.19,dr.abidpasha@gmail.com,9880382400
177,WC2023012500146,3941,17-07-2023,,"4 Pages Static Website with First year hosting free- 2999/-
Extra 5 Pages-1250/-
Domain-1200/-
",6439,6429.82,1,980.82,-9.18,Company ac,29-07-2023,NULL,NULL,NULL,1,3,3,17-07-2023 15.03,NULL,NULL,davikjyotishkendra@gmail.com,8439412180
178,WC2023012500147,4027,17-07-2023,,"450*5 Mail ids= 2250/-
For Domain+Hosting+2 mail ids Renewal= 3100/-
5350+18% Gst= 6313/-
Address update= 187/-

Roundoff amount- 6500/-",6534,6533.66,1,996.66,-0.34,Company ac,22-07-2023,NULL,NULL,NULL,1,3,3,17-07-2023 16.11,NULL,NULL,,8108951743
179,WC2023012500148,2661,18-07-2023, Pindizplaza.com,Dynamic 5 pages + Hosting ,2000,5500,0,0,3500,Rima mam account,24-07-2023,19-07-2023,NULL,NULL,1,8,8,18-07-2023 11.53,NULL,NULL,danishprashar66@gmail.com,8847045235
180,WC2023012500149,4051,19-07-2023,,"5pages static website -6500
1page extra-250
Hosting Space- 1500

Amount=8250+18%gst= 9735/-",9736,9735,1,1485,-1,Company ac,22-07-2023,19-07-2023,NULL,NULL,1,3,3,19-07-2023 15.17,NULL,NULL,,8130623515
181,WC2023012500150,3509,20-07-2023,,Procos venture ssl renewal,1180,1180,1,180,0,Company ac,20-07-2023,20-07-2023,NULL,NULL,1,3,3,20-07-2023 15.19,NULL,NULL,sales@procosventures.com,7506693293
182,WC2023012500151,3640,24-07-2023,http://orriltrade.in/,SSL,1500,1500,0,0,0,Rima mam,24-07-2023,24-07-2023,NULL,NULL,1,8,8,24-07-2023 15.12,NULL,NULL,nezlaa003@gmail.com,7045481758
183,WC2023012500152,3508,26-07-2023,swarmahathisangeetalay.com,Dynamic 5 pages + Hosting (5500 )+ 2 extra pages + 2 section - 2500/-,9440,9440,1,1440,0,Phone pay,31-07-2023,26-07-2023,NULL,NULL,1,8,8,26-07-2023 9.32,8,11-10-2023 13.10,swarmahathisangeetalay@gmail.com,9505123489
184,WC2023012500153,3734,26-07-2023,,"5pages Dynamic website with admin panel with Domain.com+1business Mail id+hosting- 6499/-

Extra Subpages- 6- 450*6=  2700/-

Amount- 9199+18%gst=10,855/-/-

50%Advance- 5428/-",10855,10854.82,1,1655.82,-0.18,Company ac,31-07-2023,NULL,NULL,NULL,1,3,3,26-07-2023 16.31,NULL,NULL,dinesh.bajpai@outlook.com,9099881490
185,WC2023012500154,3074,27-07-2023,http://yavapaints.com/,5 Business mail id ,2655,2655,1,405,0,bank transfer,27-07-2023,27-07-2023,NULL,NULL,1,8,8,27-07-2023 13.17,NULL,NULL,pankaj.kumar@yavagroup.com,8901564502
186,WC2023012500155,3982,28-07-2023,,"Blog Page- 2500+18% gst=2950/-

Proposal share",2950,2950,1,450,0,Company ac,28-07-2023,NULL,NULL,NULL,1,3,3,28-07-2023 10.00,NULL,NULL,dr.abidpasha@gmail.com,9880382400
187,WC2023012500156,3982,29-07-2023,http://mezandental.com/,"SSL Certificate

Proposal share",2360,2360,1,360,0,Company ac,29-07-2023,NULL,NULL,NULL,1,3,3,29-07-2023 9.41,NULL,NULL,dr.abidpasha@gmail.com,9880382400
188,WC2023012500157,4165,02-08-2023,Drivenservices.in,jaipur / construction / Static 5 pages + Hosting ,1000,3000,0,,2000,Rima mam account,08-08-2023,04-08-2023,NULL,NULL,1,8,8,02-08-2023 14.25,8,02-08-2023 14.34,shubhda2018@gmail.com,9.1869E+11
189,WC2023012500158,4192,04-08-2023,superkick.in,landing page + Hosting + Domain,1850,3700,0,0,1850,Rima mam Account,10-08-2023,05-08-2023,NULL,NULL,1,8,8,04-08-2023 16.41,NULL,NULL,NULL,7412804442
190,WC2023012500159,4222,07-08-2023,,4 pages static website with hosting- 2999,1599,3538.82,1,539.82,1939.82,Company ac,12-08-2023,11-08-2023,NULL,"client drop the project, not satisfied with our design.",0,3,3,07-08-2023 12.49,NULL,NULL,,9667035852
191,WC2023012500160,4223,08-08-2023,https://abacuspathshala.in/,Renewal Domain + Hosting ,3186,3186,1,486,0,company account,08-08-2023,08-08-2023,NULL,NULL,1,8,8,08-08-2023 12.19,3,08-08-2023 15.48,NULL,9911882523
192,WC2023012500161,4224,08-08-2023,rajvignas.com,5 Business mail id ,2650,2650.28,1,404.28,0.28,company account,09-08-2023,08-08-2023,NULL,NULL,1,8,8,08-08-2023 18.04,8,10-08-2023 10.30,kkotreshangadi@gmail.com,9902557754
193,WC2023012500162,3941,09-08-2023,vaidikjyotishanusandhankendra.com,Service Charges for Paid ad promotion Over Facebook,7080,7080,1,1080,0,Company ac,09-08-2023,09-08-2023,NULL,NULL,1,3,3,09-08-2023 9.58,NULL,NULL,davikjyotishkendra@gmail.com,8439412180
194,WC2023012500163,4229,09-08-2023,eurosecureindia.com,Renewal Domain: eurosecureindia.com +Hosting Space+2mail box,4248,4248,1,648,0,Company ac,09-08-2023,09-08-2023,NULL,NULL,1,3,3,09-08-2023 11.39,NULL,NULL,,8872202179
196,WC2023012500164,4235,10-08-2023,vmaksconstructions.com,"Develop RIM Application for Maintenance 
",20119,80476,1,12276,60357,Company ac,31-08-2023,NULL,NULL,NULL,1,1,3,10-08-2023 10.17,NULL,NULL,amitsagar@vmaksconstructions.com,9810070050
197,WC2023012500165,3012,11-08-2023,unifeepay.com,Dynamic 6 pages ,6000,6000,0,0,0,Rima mam account bank transfer,17-08-2023,12-08-2023,NULL,NULL,1,8,8,11-08-2023 9.44,NULL,NULL,NULL,8076143596
198,WC2023012500166,3363,14-08-2023,,4 pages static website,2000,2000,0,0,0,Rima Mam,17-08-2023,14-08-2023,NULL,NULL,1,3,3,14-08-2023 10.13,NULL,NULL,,9987893810
199,WC2023012500167,3180,14-08-2023,,Tracking Software changes,3000,3000,0,0,0,Rima Mam,14-08-2023,14-08-2023,NULL,NULL,1,3,3,14-08-2023 16.44,NULL,NULL,info@dicsexpress.com,8725011620
200,WC2023012500168,4257,14-08-2023,kapoorbeverages.com,Domain renewal- kapoorbeverages.com,1416,1416,1,216,0,Company ac,14-08-2023,14-08-2023,NULL,NULL,1,3,3,14-08-2023 17.27,NULL,NULL,,9821899419
201,WC2023012500169,4135,21-08-2023,,Ecommerce website 14500/- with payment gateway integration.,14500,14500,0,,0,Rima Mam,31-08-2023,21-08-2023,NULL,NULL,1,3,3,21-08-2023 13.12,3,22-08-2023 12.55,,9990726287
202,WC2023012500170,3330,24-08-2023,www.smartinvesto.com,Dynamic 5 pages ,2500,5310,1,810,2810,company account,30-08-2023,24-08-2023,NULL,NULL,1,8,8,24-08-2023 10.41,NULL,NULL,abhi.pandhare@gmail.com,9833522287
203,WC2023012500171,3734,24-08-2023,,Website changes- https://demos.iparable.co.in/website/medicscientific/index.php,500,500,0,0,0,Company ac,24-08-2023,NULL,NULL,NULL,1,3,3,24-08-2023 13.10,NULL,NULL,dinesh.bajpai@outlook.com,9099881490
204,WC2023012500172,2054,25-08-2023,,admin@nkcvinstitute.com changes,4500,4500,0,0,0,RIMA MAM,25-08-2023,NULL,NULL,NULL,1,3,3,25-08-2023 15.52,NULL,NULL,NULL,8318016165
205,WC2023012500173,4277,25-08-2023,,SSL,1500,1500,0,,0,PhonePay,25-08-2023,25-08-2023,NULL,NULL,1,8,8,25-08-2023 16.06,3,01-09-2023 13.30,NULL,8810541214
206,WC2023012500174,3732,26-08-2023,,34 Pages static website with 1 page dynamic with 5 year Hosting plan- 24000/-,28320,28320,1,4320,0,Company ac,05-09-2023,28-08-2023,NULL,NULL,1,3,3,26-08-2023 10.15,NULL,NULL,,9650033988
207,WC2023012500175,4285,28-08-2023,,4 pages static website -1500,1500,1500,0,0,0,Rima Mam,31-08-2023,NULL,NULL,NULL,1,3,3,28-08-2023 13.12,NULL,NULL,,9428643786
208,WC2023012500176,4286,28-08-2023,,Single Vendor Ecommerce Website,20000,21240,1,3240,1240,Company ac,07-09-2023,0000-00-00,NULL,Sir client,1,1,3,28-08-2023 13.15,1,24-01-2024 14.45,,9920044474
209,WC2023012500177,4246,29-08-2023,phfs.in,Dynamic website + Domain + Hosting + 1 Business mail id ,11210,11210,1,1710,0,Bank Transfer,08-09-2023,30-08-2023,NULL,NULL,1,8,8,29-08-2023 15.08,8,12-01-2024 10.04,phfsfinance@gmail.com,7508986222
210,WC2023012500178,4239,01-09-2023,,6 Pages Dynamic Website on WordPress. ,5000,5000,0,,0,Rima Mam,08-09-2023,01-09-2023,NULL,NULL,1,3,3,01-09-2023 12.04,3,20-09-2023 9.49,vandana.vandy21@gmail.com,9916514008
211,WC2023012500179,4051,01-09-2023,,website changes,2950,2950,1,450,0,Company ac,01-09-2023,01-09-2023,NULL,NULL,1,3,3,01-09-2023 16.01,NULL,NULL,,8130623515
212,WC2023012500180,4303,04-09-2023,,5 Pages Static Website,2250,2250,0,0,0,Rima Mam,07-09-2023,04-09-2023,NULL,NULL,1,3,3,04-09-2023 15.16,NULL,NULL,Info@risingradiance.co.in,9987893810
213,WC2023012500181,4309,06-09-2023,,Hosting Renewal- https://navbharatholidays.com/,1770,1770,1,270,0,Company ac,06-09-2023,06-09-2023,NULL,NULL,1,3,3,06-09-2023 10.14,NULL,NULL,,8866060997
214,WC2023012500182,2464,06-09-2023,,2 ssl cost@3000/-,3540,3540,1,540,0,,06-09-2023,06-09-2023,NULL,NULL,1,3,3,06-09-2023 12.09,NULL,NULL,hr.hindiko@gmail.com,9958833208
215,WC2023012500183,4310,06-09-2023,kiarainteriors.com,"New Domain: kiarainteriors.com 	
Hosting Space  	 
",3186,3186,1,486,0,Company ac,06-09-2023,08-09-2023,NULL,NULL,1,3,3,06-09-2023 16.13,NULL,NULL,,9650589991
216,WC2023012500184,4311,06-09-2023,glazon.in,ssl+hosting space renewal,2360,2360,1,360,0,Company ac,07-09-2023,07-09-2023,NULL,NULL,1,3,3,06-09-2023 16.17,NULL,NULL,,7526015666
217,WC2023012500185,4318,08-09-2023,,Hosting Renewal,1770,1770,1,270,0,Company ac,08-09-2023,08-09-2023,NULL,NULL,1,3,3,08-09-2023 10.54,NULL,NULL,,9867304001
218,WC2023012500186,4329,11-09-2023,,4-5 Pages static website(HTML) +10 pages extra+2business mail ids+ssl+google my listing,12271,12271,1,1872,0,,16-09-2023,11-09-2023,NULL,NULL,1,3,3,11-09-2023 13.48,NULL,NULL,,9810415241
219,WC2023012500187,4335,12-09-2023,,Hosting Space +3 mail ids renewal,3363,3363,1,513,0,Company ac,12-09-2023,NULL,NULL,NULL,1,3,3,12-09-2023 10.15,NULL,NULL,,9717106928
220,WC2023012500188,3929,13-09-2023,,Landing Page,3500,3500,0,0,0,Rima Mam,16-09-2023,13-09-2023,NULL,NULL,1,3,3,13-09-2023 9.40,NULL,NULL,,9.71565E+11
221,WC2023012500189,4349,14-09-2023,napians.com,Dynamic 4-5 pages on wordpress,6490,6490,1,990,0,Company account,20-09-2023,14-09-2023,NULL,NULL,1,8,8,14-09-2023 14.42,NULL,NULL,NULL,8808485750
222,WC2023012500190,3734,14-09-2023,,Domain- http://medicscientific.com/ SSL+Website Changes,2950,2950,1,450,0,Company ac,14-09-2023,15-09-2023,NULL,NULL,1,3,3,14-09-2023 15.58,NULL,NULL,dinesh.bajpai@outlook.com,9099881490
223,WC2023012500191,4354,15-09-2023,,"Dynamic Website with Ecom feature future update ready (in 
phase-1) 
",30680,30680,1,4680,0,Rima Mam+Company ac,22-09-2023,NULL,NULL,NULL,1,3,3,15-09-2023 10.51,NULL,NULL,,9811978166
224,WC2023012500192,4364,21-09-2023,esspn.in,Dynamic 5 pages + Domain + Hosting + 1 B-id,3835,7670,1,1170,3835,paytm,28-09-2023,22-09-2023,NULL,NULL,1,8,8,21-09-2023 17.32,NULL,NULL,NULL,9650595863
225,WC2023012500193,4397,27-09-2023,,4 pages static website with hosting,2000,2000,0,,0,Company ac,27-09-2023,30-09-2023,NULL,NULL,1,3,3,27-09-2023 14.49,3,24-01-2024 14.40,,7567076000
226,WC2023012500194,2248,04-10-2023,,6 pages static website,1750,2100,0,0,350,Rima Mam,07-10-2023,04-10-2023,NULL,Call not picked .,0,3,3,04-10-2023 10.52,NULL,NULL,skgraphics@gmail.com,9428643786
227,WC2023012500195,3363,04-10-2023,,4 pages static website,2000,2000,0,0,0,Rima Mam,07-10-2023,04-10-2023,NULL,NULL,1,3,3,04-10-2023 10.56,NULL,NULL,,9987893810
228,WC2023012500196,2422,12-10-2023,,Domain-shreeminfratech.com +hosting space renewal,2950,2950,1,450,0,Company ac,12-10-2023,NULL,NULL,NULL,1,3,3,12-10-2023 9.45,NULL,NULL,NULL,9403393985
229,WC2023012500197,4535,12-10-2023,mwrs.shop,Dynamic website 5 Pages + Hosting + 1 Business mail id ,6500,6500,0,0,0,Rima mam Account,20-10-2023,13-10-2023,NULL,NULL,1,8,8,12-10-2023 16.47,NULL,NULL,NULL,6386862362
230,WC2023012500198,4551,17-10-2023,,50k Bulk Email,3540,3540,1,540,0,Company ac,17-10-2023,17-10-2023,NULL,NULL,1,3,3,17-10-2023 15.00,NULL,NULL,,9312562666
231,WC2023012500199,4563,25-10-2023,mdeei.com,Dynamic 5 pages ,2000,4500,0,0,2500,Paytm Rima mam Account,28-10-2023,25-10-2023,NULL,NULL,1,8,8,25-10-2023 13.09,NULL,NULL,NULL,8057154979
232,WC2023012500200,3180,26-10-2023,,Tracking Software changes,4000,4000,0,0,0,Rima Mam,26-10-2023,NULL,NULL,NULL,1,3,3,26-10-2023 14.38,NULL,NULL,info@dicsexpress.com,8725011620
233,WC2023012500201,4569,30-10-2023,www.tropicanapower.com,Dynamic 7 pages ,9440,9440,1,1440,0,Company account,03-11-2023,30-10-2023,NULL,NULL,1,8,8,30-10-2023 12.59,NULL,NULL,NULL,9810231498
234,WC2023012500202,4570,31-10-2023,aristaproducts.com,Domain + 1 Business mail id renewal,2000,2000,1,305,0,Company account,31-10-2023,31-10-2023,NULL,NULL,1,8,8,31-10-2023 13.13,NULL,NULL,NULL,9880322519
235,WC2023012500203,4397,02-11-2023,,Dynamic website with hosting ,35400,35400,1,5400,0,Company ac,16-11-2023,01-11-2023,NULL,NULL,1,3,3,02-11-2023 10.29,NULL,NULL,,7567076000
236,WC2023012500204,4572,03-11-2023,,static +dynamic Website development,42000,41300,1,6300,-700,Company ac,30-11-2023,03-11-2023,NULL,NULL,1,1,3,03-11-2023 15.02,1,07-03-2024 13.09,tycon@tyconautomation.com,9350191991
237,WC2023012500205,4303,06-11-2023,,4 Pages Static Website,2000,2000,0,0,0,Rima Mam Axis Bank,06-11-2023,06-11-2023,NULL,NULL,1,3,3,06-11-2023 10.32,NULL,NULL,Info@risingradiance.co.in,9987893810
238,WC2023012500206,4573,06-11-2023,,primerosegoa.com Domain+hosting+2 mail ids with 1gb space renewal,4248,4248,1,648,0,Company ac,06-11-2023,06-11-2023,NULL,NULL,1,3,3,06-11-2023 12.09,NULL,NULL,,9873594929
239,WC2023012500207,4575,07-11-2023,,Hosting Renewal,1770,1770,1,270,0,Company ac,07-11-2023,07-11-2023,NULL,NULL,1,3,3,07-11-2023 15.05,NULL,NULL,,9793339437
240,WC2023012500208,4354,08-11-2023,,"Hosting and ssl charges
",7080,7080,1,1080,0,Company ac,09-11-2023,08-11-2023,NULL,NULL,1,3,3,08-11-2023 13.22,NULL,NULL,,9811978166
241,WC2023012500209,1103,08-11-2023,,Bulk whtsapp- 3750+18% gst=4425-1283(last balance)= 3142/- Received,4425,4425,1,675,0,Company ac,08-11-2023,08-11-2023,NULL,NULL,1,3,3,08-11-2023 13.30,NULL,NULL,,8586027123
242,WC2023012500210,4576,09-11-2023,,Dynamic website with Domain+Hosting,7669,7669,1,1170,0,Company ac,09-11-2023,18-11-2023,NULL,NULL,1,3,3,09-11-2023 13.47,NULL,NULL,,9929866424
243,WC2023012500211,4577,10-11-2023,,Lead Management,50000,350000,0,,300000,Company ac,30-11-2023,10-11-2023,NULL,reject,0,1,3,10-11-2023 10.46,1,15-02-2024 19.07,,9910181115
244,WC2023012500212,4578,16-11-2023, engineerbhaiservice.com,Dynamic website + Domain + Hosting ,6500,6500,0,0,0,Rima mam account,23-11-2023,18-11-2023,NULL,NULL,1,8,8,16-11-2023 14.32,NULL,NULL,NULL,8959640360
245,WC2023012500213,4579,17-11-2023,,Dynamic Website with logo+hosting,10619,10619,1,1620,0,Company ac,23-11-2023,17-11-2023,NULL,NULL,1,3,3,17-11-2023 14.37,NULL,NULL,,8693092010
246,WC2023012500214,4580,20-11-2023,,"Domain Renewal=1200
Hosting space- 800
1 email id- 450=2450/-",2891,2891,1,441,0,Company ac,23-11-2023,20-11-2023,NULL,NULL,1,3,3,20-11-2023 13.51,NULL,NULL,,9888504667
247,WC2023012500215,4608,23-11-2023,,Dynamic website 5 pages - 4500/-,4500,4500,0,,0,rima mam account,30-11-2023,24-11-2023,NULL,NULL,1,8,8,23-11-2023 11.43,3,23-11-2023 16.55,NULL,7906683408
256,WC2023012500216,4618,23-11-2023,abacuspathshala.in,SMO -,5000,5000,0,0,0,rima mam account,23-12-2023,23-11-2023,NULL,NULL,1,8,8,23-11-2023 17.03,NULL,NULL,NULL,9911882523
257,WC2023012500217,4642,27-11-2023,dreamvisasolutions.com,Dynamic website 6 pages + Hosting + 6 extra pages + some changes in landing page ,10500,10500,0,,0,Rima mam account,04-12-2023,28-11-2023,NULL,NULL,1,8,8,27-11-2023 9.54,8,09-01-2024 17.24,NULL,7042775704
258,WC2023012500218,4648,28-11-2023,,5-7 Pages Dynamic Website with Admin Panel (PHP)+Hosting Space,11799,11799,1,1800,0,Company ac,06-12-2023,28-11-2023,NULL,NULL,1,3,3,28-11-2023 15.21,NULL,NULL,,9899336565
259,WC2023012500219,2721,30-11-2023,,"5 gmail ids= customercare@evanicopro.com
accounts@evanicopro.com
Sales@evanicopro.com
admin@evanicopro.com
info@evanicopro.com",17700,17700,1,2700,0,Company ac,01-12-2023,30-11-2023,NULL,NULL,1,3,3,30-11-2023 16.19,NULL,NULL,realledelhi@gmail.com,7838113316
260,WC2023012500220,4303,07-12-2023,,5 Pages Static Website,2250,2250,0,0,0,Rima Mam,12-12-2023,07-12-2023,NULL,NULL,1,3,3,07-12-2023 10.56,NULL,NULL,Info@risingradiance.co.in,9987893810
261,WC2023012500221,4135,07-12-2023,,ZB Buyer changes,7000,7000,0,0,0,Rima Mam,07-12-2023,07-12-2023,NULL,NULL,1,3,3,07-12-2023 14.49,NULL,NULL,,9990726287
262,WC2023012500222,4683,08-12-2023,,8-10 Pages Dynamic website with ssl+4 extra pages,21004,21004,1,3204,0,Company ac,16-12-2023,08-12-2023,NULL,NULL,1,3,3,08-12-2023 10.10,3,19-01-2024 14.23,,9873434556
263,WC2023012500223,1103,08-12-2023,,5 mail ids renewal+12k bulk whtsapp,4425,4425,0,0,0,Company ac,08-12-2023,13-12-2023,NULL,NULL,1,3,3,08-12-2023 13.26,NULL,NULL,,8586027123
264,WC2023012500224,1503,11-12-2023,,Domain-vvibes.in+hosting space+3mail ids Renewal,4189,4189,1,639,0,Company ac,14-12-2023,11-12-2023,NULL,NULL,1,3,3,11-12-2023 12.55,NULL,NULL,,999981229
265,WC2023012500225,3180,12-12-2023,,Tracking Software changes,4000,4000,0,0,0,Rima Mam,12-12-2023,12-12-2023,NULL,NULL,1,3,3,12-12-2023 12.26,NULL,NULL,info@dicsexpress.com,8725011620
266,WC2023012500226,4785,13-12-2023,www.Balajiorgochem.com,Domain + Hosting renewal ,3776,3776,1,576,0,Bank transfer,13-12-2023,13-12-2023,NULL,NULL,1,8,8,13-12-2023 17.44,NULL,NULL,NULL,9509695086
267,WC2023012500227,3514,14-12-2023,,Hosting Space and ssl renewal,6490,6490,1,990,0,Company ac,14-12-2023,16-12-2023,NULL,NULL,1,1,3,14-12-2023 14.58,1,24-01-2024 14.44,,9911717776
268,WC2023012500228,4806,14-12-2023,http://yavapaints.com/, 5 Business mail id,2655,2655,1,405,0,Company account,14-12-2023,14-12-2023,NULL,NULL,1,8,8,14-12-2023 16.07,NULL,NULL,NULL,8901564502
269,WC2023012500229,4856,15-12-2023,Payanaholidays.com ,Dynamic website + Hosting ,8260,8260,1,1260,0,Company account ( Google pay ),23-12-2023,18-12-2023,NULL,NULL,1,8,8,15-12-2023 12.57,8,15-01-2024 17.59,NULL,9620565970
270,WC2023012500230,4640,15-12-2023,,Solar Static website with domain+hosting ,4450,4450,0,,0,Rima Mam,18-12-2023,15-12-2023,NULL,NULL,1,3,3,15-12-2023 13.48,3,31-01-2024 14.30,energysunflare@gmail.com,7206741458
271,WC2023012500231,3363,18-12-2023,,https://manasveeholidays.com/ changes,300,300,0,0,0,Rima mam,18-12-2023,NULL,NULL,NULL,1,3,3,18-12-2023 11.19,NULL,NULL,,9987893810
272,WC2023012500232,4908,18-12-2023,,Domain- -brtcs.com+Hosting+1mail box,4307,4307,1,657,0,Company ac,18-12-2023,18-12-2023,NULL,NULL,1,3,3,18-12-2023 15.14,NULL,NULL,,9811378655
273,WC2023012500233,4939,19-12-2023,,4-5 Pages Dynamic website with CMS Panel+domain+Hosting,5750,11500,0,0,5750,Rima Mam,27-12-2023,NULL,NULL,NULL,1,3,3,19-12-2023 13.29,NULL,NULL,,7303617427
274,WC2023012500234,4909,20-12-2023,,5-7 Pages Dynamic Website+Domain+Hosting space+5 mail id 2gb space,21500,21500,0,0,0,Iparable ac,31-12-2023,NULL,NULL,NULL,1,3,3,20-12-2023 10.06,NULL,NULL,elements.rafi@gmail.com,9.7157E+11
275,WC2023012500235,4949,20-12-2023, combatant.in,website sifting from one hosting to another hosting,1000,1000,0,0,0,Rima mam account,19-12-2023,20-12-2023,NULL,NULL,1,8,8,20-12-2023 14.50,NULL,NULL,NULL,9662935240
276,WC2023012500236,4962,21-12-2023,,Domain-agnixclassses.com+hosting+1 Mail id renewal,10207,10207,1,1557,0,Company ac,21-12-2023,21-12-2023,NULL,NULL,1,3,3,21-12-2023 14.55,NULL,NULL,,9260994375
277,WC2023012500237,3180,22-12-2023,,Tracking Software changes,500,500,0,0,0,Rima Mam,22-12-2023,22-12-2023,NULL,NULL,1,3,3,22-12-2023 11.33,NULL,NULL,info@dicsexpress.com,8725011620
278,WC2023012500238,5045,25-12-2023,craftyhomes.in,Hosting renewal For Dynamic website ( 1661 )and E-commerce website (3000),5500,5499.98,1,838.98,-0.02,Company account,25-12-2023,25-12-2023,NULL,NULL,1,8,8,25-12-2023 13.06,8,25-12-2023 13.14,NULL,9891256009
279,WC2023012500239,3923,25-12-2023,rodentokill.com,Dynamic website 5-6 pages ,2500,6490,1,990,3990,Bank transfer,02-01-2024,27-12-2023,NULL,NULL,1,8,8,25-12-2023 14.57,NULL,NULL,pawanhimal8221@gmail.com,8221812790
280,WC2023012500240,5085,29-12-2023,,SSL+Hosting Space Renewal,8850,8850,1,1350,0,Company ac,29-12-2023,30-12-2023,NULL,NULL,1,3,3,29-12-2023 11.52,NULL,NULL, dsk172@rediffmail.com,9315630678
281,WC2023012500241,1103,02-01-2024,,School management software,14750,14750,1,2250,0,Company ac,09-02-2024,02-01-2024,NULL,NULL,1,3,3,02-01-2024 15.41,NULL,NULL,,8586027123
282,WC2023012500242,3195,04-01-2024,http://www.aandavan.in/,SSL,2000,2000,0,0,0,Rima mam account,04-01-2024,04-01-2024,NULL,NULL,1,8,8,04-01-2024 14.48,NULL,NULL,jjandassociates18@gmail.com,9820104562
283,WC2023012500243,3351,10-01-2024,Drbrcmedicalcenter.com,Payment is for Hosting renewal of Dynamic website ( Drbrcmedicalcenter.com ),2500,2500,0,0,0,Rima mam,10-01-2024,10-01-2024,NULL,NULL,1,8,8,10-01-2024 12.27,NULL,NULL,NULL,9058981658
284,WC2023012500244,5192,12-01-2024,yavapaints.com,Dynamic website 5 pages + Hosting + SSL,10000,10000.5,1,1525.5,0.5,Bank transfer,19-01-2024,15-01-2024,NULL,NULL,1,8,8,12-01-2024 14.15,8,02-02-2024 9.37,NULL,8059444728
285,WC2023012500245,1041,17-01-2024,wrinkle-free.co.in,Domain + Hosting + 1 Mail id renewal,4897,4897,1,747,0,company account ,17-01-2024,17-01-2024,NULL,NULL,1,8,8,17-01-2024 15.29,NULL,NULL,rohitmaithil@gmail.com,9826299299
286,WC2023012500246,2464,17-01-2024,https://erp.hindiko.co.in/,software changes,5900,5900,1,900,0,Company ac,18-01-2024,17-01-2024,NULL,NULL,1,3,3,17-01-2024 16.13,3,20-01-2024 9.17,hr.hindiko@gmail.com,9958833208
287,WC2023012500247,2690,24-01-2024,yatra2pooja.com,Dynamic website 5 page + Domain + Hosting ,7000,7000,0,0,0,Rima mam,03-02-2024,29-01-2024,NULL,NULL,1,8,8,24-01-2024 13.24,NULL,NULL,e.pooja.puja@gmail.com,9535850386
288,WC2023012500248,4683,31-01-2024,,Hosting Space,3540,3540,1,540,0,Company ac,31-01-2024,NULL,NULL,NULL,1,3,3,31-01-2024 10.06,NULL,NULL,,9873434556
289,WC2023012500249,5352,01-02-2024,cceglobal.in,shipra / Visa services / Dynamic website wordpress -15 pages ,2000,7000,0,0,5000,cash,08-02-2024,02-02-2024,NULL,NULL,1,8,8,01-02-2024 10.49,NULL,NULL,roc.dkr@gmail.com,9540666288
290,WC2023012500250,5374,01-02-2024,,1 mail id renewal,531,531,1,81,0,Company ac,01-02-2024,01-02-2024,NULL,NULL,1,3,3,01-02-2024 13.02,NULL,NULL,,9821899419
291,WC2023012500251,4580,02-02-2024,,ssl renewal,1770,1770,1,270,0,Company ac,02-02-2024,NULL,NULL,NULL,1,3,3,02-02-2024 13.58,NULL,NULL,,9888504667
292,WC2023012500252,5350,02-02-2024,Thestreetviewrestro.com,Landing page + Domain + Hosting + SMO,6300,8000,0,,1700,Rima mam,09-02-2024,05-02-2024,NULL,NULL,1,8,8,02-02-2024 17.48,8,05-02-2024 11.48,kurukshetra1987@gmail.com,9958949529
293,WC2023012500253,5339,03-02-2024,hindpackers.com,Static website + Domain + Hosting ,4000,4000,0,,0,Rima mam,08-02-2024,03-02-2024,NULL,NULL,1,8,8,03-02-2024 9.30,8,03-02-2024 9.56,NULL,8941895623
294,WC2023012500254,1707,03-02-2024,pradeepvidhani.com,Domain renewal,1416,1416,1,216,0,company account,03-02-2024,03-02-2024,NULL,NULL,1,8,8,03-02-2024 9.35,NULL,NULL,vidhaniomsai@gmail.com,9414125443
295,WC2023012500255,4242,03-02-2024,Webbiesmaster.com, Dynamic 5-6 pages only - 5000/-,5900,5900,1,900,0,Company account,11-02-2024,05-02-2024,NULL,NULL,1,8,8,03-02-2024 15.48,8,03-02-2024 15.52,neha.kwatra176@gmail.com,8198000414
296,WC2023012500256,3261,06-02-2024,,hosting and email renewal,7400,7400,0,0,0,axis,06-02-2024,NULL,NULL,NULL,1,1,1,06-02-2024 19.56,NULL,NULL,romilg4ever@gmail.com,7411001312
297,WC2023012500257,5263,07-02-2024,,20-25 pages Dynamic website ,29500,29500,1,4500,0,Company ac,29-02-2024,NULL,NULL,NULL,1,3,3,07-02-2024 10.22,NULL,NULL,,8791871553
298,WC2023012500258,5405,07-02-2024,kcvcouncil.com,add Scanner in website + Hosting renewal ,5500,5500,0,0,0,Rima mam account,07-02-2024,07-02-2024,NULL,NULL,1,8,8,07-02-2024 12.14,NULL,NULL,NULL,8318016165
299,WC2023012500259,5378,08-02-2024,theendocrine.com,Right now he want to book Domain only,1200,1200,0,0,0,Rima mam ,08-02-2024,08-02-2024,NULL,NULL,1,8,8,08-02-2024 11.40,NULL,NULL,drmanishkool@gmail.com,8130259434
300,WC2023012500260,5378,09-02-2024,theendocrine.com,Static website 5 pages + Hosting ,3000,3000,0,0,0,Rima mam account,15-02-2024,09-02-2024,NULL,NULL,1,8,8,09-02-2024 14.56,NULL,NULL,drmanishkool@gmail.com,8130259434
301,WC2023012500261,4257,09-02-2024,,Hosting renewal,2950,2950,1,450,0,Company ac,09-02-2024,09-02-2024,NULL,NULL,1,3,3,09-02-2024 16.00,NULL,NULL,,9821899419
302,WC2023012500262,5411,12-02-2024,caag.in,Dynamic website 5 pages ,5900,5900,1,900,0,company account,19-02-2024,12-02-2024,NULL,NULL,1,8,8,12-02-2024 12.36,NULL,NULL,wecare@tru-blu.co,8075384680
303,WC2023012500263,5461,13-02-2024,agoiludhiana.in,Domain + Hosting renewal ,4956,4956,1,756,0,Company account,13-02-2024,13-02-2024,NULL,NULL,1,8,8,13-02-2024 14.47,NULL,NULL,NULL,9815141685
304,WC2023012500264,4608,13-02-2024,rastriyahindusewak-sangh.in,Domain renewal ,1416,1416,1,216,0,company account,13-02-2024,13-02-2024,NULL,NULL,1,8,8,13-02-2024 15.17,NULL,NULL,NULL,7906683408
305,WC2023012500265,5472,14-02-2024,,bulk mail n bulk whatsapp,24780,24780,1,3780,0,axis bank cheque no- 057026,14-02-2024,NULL,NULL,NULL,1,1,1,14-02-2024 12.17,NULL,NULL,NULL,9205566501
306,WC2023012500266,5484,15-02-2024,,4 pages static website+logo,2500,2500,0,0,0,,21-02-2024,NULL,NULL,NULL,1,3,3,15-02-2024 12.48,NULL,NULL,Kattanaveen25@gmail.com,9494639693
307,WC2023012500267,2309,15-02-2024,,"Domain Renewal: evergreenbarandrestaurant.com 
Email Boxes 1GB 
Web Hosting 
Domain: genesisfitness.co.in 
Email Boxes 1GB
",6300,6300,0,0,0,Rima mam,15-02-2024,15-02-2024,NULL,NULL,1,3,3,15-02-2024 15.38,NULL,NULL,sayyam.mhalsekar@gmail.com,9822166968
308,WC2023012500268,5489,17-02-2024,,4 pages static website with domain+hosting,3700,3700,0,0,0,,21-02-2024,NULL,NULL,NULL,1,3,3,17-02-2024 10.01,NULL,NULL,pardeepsinghrakwal@gmail.com,9914710013
309,WC2023012500269,3323,19-02-2024,shrivastavcarrental.com,Static website 5 pages + Hosting ,3000,3000,0,0,0,Rima mam,24-02-2024,20-02-2024,NULL,NULL,1,8,8,19-02-2024 10.49,NULL,NULL,,6262408443
310,WC2023012500270,1860,19-02-2024,http://www.jaynarayanindustries.com/,Domain + Hosting renewal ,2596,2596,0,0,0,,19-02-2024,19-02-2024,NULL,NULL,1,8,8,19-02-2024 12.35,NULL,NULL,vipinagpur78@gmail.com,9960747404
311,WC2023012500271,5538,21-02-2024,,Domain medearthhealthcare.com +hosting+1 mail box renewal,5487,5487,1,837,0,Company ac,22-02-2024,21-02-2024,NULL,NULL,1,3,3,21-02-2024 10.09,NULL,NULL,,9888998228
312,WC2023012500272,5539,21-02-2024,latifahbouri.com,Domain + 5 mail id package ,4400,4400,1,671,0,4400,21-02-2024,21-02-2024,NULL,NULL,1,8,8,21-02-2024 15.02,NULL,NULL,NULL,558176812
313,WC2023012500273,3363,22-02-2024,,12 pages Static website,7000,7000,0,0,0,,28-02-2024,22-02-2024,NULL,NULL,1,3,3,22-02-2024 15.22,NULL,NULL,,9987893810
314,WC2023012500274,5572,27-02-2024,addangroup.com, Dynamic website 5 pages ,5000,5000,0,0,0,Rima mam,06-03-2024,28-02-2024,NULL,NULL,1,8,8,27-02-2024 13.55,NULL,NULL,addangroup@gmail.com,8789671879
315,WC2023012500275,1579,29-02-2024,abhaykr158@icloud.com,Dynamic Website and email ,34810,34810,1,5310,0,off acc,09-03-2024,28-02-2024,NULL,NULL,1,1,1,29-02-2024 10.08,1,12-04-2024 12.00,,9881396939
317,WC2023012500276,5411,29-02-2024,caag.in,Dynamic website 5 pages ,5900,5900,1,900,0,company account,07-03-2024,01-03-2024,NULL,NULL,1,8,8,29-02-2024 17.57,NULL,NULL,wecare@tru-blu.co,8075384680
318,WC2023012500277,5622,04-03-2024,gaurcity2taxiservice.com,4 pages Static website- 1500Domain.com- 1200Hosting- 1000Listing- 20001 mail id freeLogo -800,4500,4500,0,,0,,08-03-2024,04-03-2024,NULL,NULL,1,3,3,04-03-2024 13.54,3,18-03-2024 16.26,bhardwajhemant19891989@gmail.com,7830069968
319,WC2023012500278,5624,04-03-2024,,50k Bulk Mail@3000/-,3000,3000,0,0,0,Rima Mam ac,04-03-2024,04-03-2024,NULL,NULL,1,3,3,04-03-2024 14.18,NULL,NULL,,9999691983
320,WC2023012500279,5378,04-03-2024,http://www.theendocrine.com/,SSL,1500,1500,0,0,0,Rima mam,04-03-2024,04-03-2024,NULL,NULL,1,8,8,04-03-2024 15.23,NULL,NULL,drmanishkool@gmail.com,8130259434
321,WC2023012500280,5625,05-03-2024,euphorichomes.in,Hosting + 1 mail id ,4720,4720,1,720,0,Company account,05-03-2024,05-03-2024,NULL,NULL,1,8,8,05-03-2024 9.29,NULL,NULL,NULL,9893506020
322,WC2023012500281,5411,05-03-2024,caag.in,Blog page in wordpress ,2500,2500,0,0,0,Rima mam,06-03-2024,05-03-2024,NULL,NULL,1,8,8,05-03-2024 11.44,NULL,NULL,wecare@tru-blu.co,8075384680
323,WC2023012500282,5629,05-03-2024,,website,86200,35400,1,5400,0,company acc,15-03-2024,05-03-2024,NULL,NULL,1,1,1,05-03-2024 13.46,NULL,NULL,info@jbart.in,9910062626
324,WC2023012500283,2668,06-03-2024,,Domain- edu-knowhow.com +Hosting Space renewal,4956,4956,1,756,0,Company ac,06-03-2024,08-03-2024,NULL,NULL,1,3,3,06-03-2024 9.51,NULL,NULL,asksehdev.ss@gmail.com,9811419240
325,WC2023012500284,5631,06-03-2024,,5 pages static website.,500,1500,0,0,1000,Rima Mam,09-03-2024,09-03-2024,NULL,NULL,1,3,3,06-03-2024 13.16,NULL,NULL,,9301132811
326,WC2023012500285,5548,07-03-2024,,4 pages static website+hosting,2500,2500,0,0,0,Rima Mam,13-03-2024,07-03-2024,NULL,NULL,1,3,3,07-03-2024 16.16,NULL,NULL,raizadaalok@hotmail.com,9810624169
327,WC2023012500286,3734,08-03-2024,,Extra page,590,590,1,90,0,company ac,08-03-2024,NULL,NULL,NULL,1,3,3,08-03-2024 14.28,NULL,NULL,dinesh.bajpai@outlook.com,9099881490
328,WC2023012500287,5650,08-03-2024,,DC software+hosting+email,6490,6490,1,990,0,UPI,08-03-2024,NULL,NULL,NULL,1,1,1,08-03-2024 19.32,NULL,NULL,NULL,9540993702
329,WC2023012500288,5671,11-03-2024,,SMO and paid ads,20000,20000,0,0,0,axis,11-03-2024,NULL,NULL,NULL,1,1,1,11-03-2024 9.36,NULL,NULL,NULL,7081066666
330,WC2023012500289,5696,13-03-2024,,Dynamic website 5 pages ,5000,5000,0,0,0,Rima mam,18-03-2024,13-03-2024,NULL,NULL,1,8,8,13-03-2024 12.04,NULL,NULL,NULL,7985615059
331,WC2023012500290,1516,13-03-2024,,6 pages static website with hosting,4720,4720,1,720,0,Company ac,19-03-2024,13-03-2024,NULL,NULL,1,3,3,13-03-2024 13.11,3,06-04-2024 11.30,sahdashrath@gmail.com,9871635414
332,WC2023012500291,2700,14-03-2024,,Domain+hosting renewal : www.windsorhouses.in/,4956,4956,1,756,0,Company ac,14-03-2024,14-03-2024,NULL,NULL,1,3,3,14-03-2024 13.05,NULL,NULL,windsorhouse.shimla@gmail.com,9650023506
333,WC2023012500292,2464,14-03-2024,,software changes,23600,23600,1,3600,0,company ac,14-03-2024,23-03-2024,NULL,NULL,1,3,3,14-03-2024 15.06,NULL,NULL,hr.hindiko@gmail.com,9958833208
334,WC2023012500293,2699,21-03-2024,www.geefolksmatrixx.com,Domain + Hosting Renewal for Static website ,2596,2596,1,396,0,Gunjan sir account,21-03-2024,21-03-2024,NULL,NULL,1,8,8,21-03-2024 15.39,NULL,NULL,NULL,8810541214
335,WC2023012500294,5774,22-03-2024,https://www.coatlabprime.com/,website +hosting,4130,4130,1,630,0,,22-03-2024,22-03-2024,NULL,NULL,1,1,1,22-03-2024 14.37,NULL,NULL,,9818811491
336,WC2023012500295,5775,22-03-2024,,Dynamic website,9440,9440,1,1440,0,Company ac,22-03-2024,22-03-2024,NULL,NULL,1,3,3,22-03-2024 15.08,3,22-03-2024 15.39,,64210396865
337,WC2023012500296,5472,01-04-2024,,bulk mail,5900,5900,1,900,0,cheque,22-03-2024,NULL,NULL,NULL,1,1,1,01-04-2024 10.09,NULL,NULL,NULL,9205566501
338,WC2023012500297,5548,01-04-2024,,SSL Charges,1500,1500,0,0,0,Rima Mam,01-04-2024,01-04-2024,NULL,NULL,1,3,3,01-04-2024 11.20,NULL,NULL,raizadaalok@hotmail.com,9810624169
339,WC2023012500298,1758,01-04-2024,,Software Development hosting space,3540,3540,1,540,0,,25-03-2024,NULL,NULL,NULL,1,1,1,01-04-2024 16.17,NULL,NULL,hqrl2016@gmail.com,1143555555
340,WC2023012500299,3363,02-04-2024,astroparagjoshi.com,5 pages Static website,2250,2250,0,0,0,Rima Mam,06-04-2024,02-04-2024,NULL,NULL,1,3,3,02-04-2024 9.38,NULL,NULL,,9987893810
341,WC2023012500300,5631,02-04-2024,,5 pages static website.,700,1500,0,0,800,Rima Mam,04-04-2024,02-04-2024,NULL,NULL,1,3,3,02-04-2024 15.00,NULL,NULL,,9301132811
342,WC2023012500301,5870,03-04-2024,,SIngle vendor ecom website with payment gatway,15500,15500,0,,0,RIMA Mam,17-04-2024,03-04-2024,NULL,NULL,1,3,3,03-04-2024 15.59,3,25-04-2024 9.28,niteshrana467@gmail.com,9113369005
343,WC2023012500302,5880,03-04-2024,,4-5 pages Dynamic website with cms panel- 5000/-,5000,5000,0,0,0,Rima Mam,04-04-2024,10-04-2024,NULL,NULL,1,3,3,03-04-2024 16.28,NULL,NULL,,9773863348
344,WC2023012500303,5886,04-04-2024,,5 pages Static website,2000,2000,0,,0,,11-04-2024,04-04-2024,NULL,NULL,1,3,3,04-04-2024 11.40,3,11-04-2024 16.49,,9705080909
345,WC2023012500304,5887,04-04-2024,,5 Lac Bulk Email@14000/-,16520,16520,1,2520,0,Company ac,04-04-2024,NULL,NULL,NULL,1,3,3,04-04-2024 11.44,NULL,NULL,,9953292314
346,WC2023012500305,5704,04-04-2024,Nimbus RealtyGroup,Greater noida / real estate / Landing page / Static ,1770,1770,1,270,0,company account,05-04-2024,10-04-2024,NULL,NULL,1,8,8,04-04-2024 12.51,NULL,NULL,gopalkrishan3009@gmail.com,8010183000
347,WC2023012500306,5894,05-04-2024,,QR Code,23600,23600,1,3600,0,bank acc,05-04-2024,NULL,NULL,NULL,1,1,1,05-04-2024 11.01,NULL,NULL,NULL,9625365554
348,WC2023012500307,5650,05-04-2024,,attendance and visit management,10000,118000,1,18000,108000,company acc,30-04-2024,NULL,NULL,NULL,1,1,1,05-04-2024 11.06,NULL,NULL,NULL,9540993702
349,WC2023012500308,5880,10-04-2024,,6 keywords seo,5000,5000,0,0,0,Rima Mam,30-04-2024,10-04-2024,NULL,NULL,1,3,3,10-04-2024 11.59,NULL,NULL,,9773863348
350,WC2023012500309,5950,10-04-2024,,1 Lac Bulk Email- 6000/-with one year validity,6000,6000,0,0,0,Rima mam,10-04-2024,10-04-2024,NULL,NULL,1,3,3,10-04-2024 14.18,NULL,NULL,admin@themindtherapy.in,8557841465
351,WC2023012500310,5969,11-04-2024,aptechnolinks.in,Static website 6 pages + Hosting ,4600,4600.82,1,701.82,0.82,Company paytm,12-04-2024,17-04-2024,NULL,NULL,1,8,8,11-04-2024 11.33,8,20-04-2024 9.47,NULL,9872748945
352,WC2023012500311,3171,11-04-2024,savyconsultancyservices.com,Domain + Hosting + 1 mail id renewal,4500,4500,1,687,0,company account,12-04-2024,12-04-2024,NULL,NULL,1,8,8,11-04-2024 14.30,NULL,NULL,NULL,8383806783
353,WC2023012500312,5462,11-04-2024,,Ecom website with hosting+domain,9200,20296,1,3096,11096,Company ac,11-04-2024,19-04-2024,NULL,NULL,1,3,3,11-04-2024 16.37,NULL,NULL,,9511242441
354,WC2023012500313,1579,01-05-2024,,website maintenance ,9440,9440,1,1440,0,bank acc,01-05-2024,NULL,NULL,NULL,1,1,1,12-04-2024 11.59,NULL,NULL,,9881396939
355,WC2023012500314,5472,15-04-2024,,bulk mail,5900,5900,1,900,0,bank,12-04-2024,NULL,NULL,NULL,1,1,1,15-04-2024 16.07,NULL,NULL,NULL,9205566501
356,WC2023012500315,5955,16-04-2024, skreality.co.in,Static website 5 pages + Domain + Hosting ,2000,4700,0,0,2700,Rima mam,23-04-2024,17-04-2024,NULL,NULL,1,8,8,16-04-2024 13.11,NULL,NULL,karthik.v.iifl@gmail.com,9666420650
357,WC2023012500316,6010,16-04-2024,,5 Pages Dynamic website with hosting,5000,11800,1,1800,6800,Company ac,20-04-2024,16-04-2024,NULL,NULL,1,3,3,16-04-2024 15.32,NULL,NULL,,9810884774
358,WC2023012500317,3074,18-04-2024,yavapaints.com,Domain renewal ,1416,1416,1,216,0,Bank transfer,18-04-2024,18-04-2024,NULL,NULL,1,8,8,18-04-2024 9.27,NULL,NULL,pankaj.kumar@yavagroup.com,8901564502
359,WC2023012500318,5880,18-04-2024,,3 Pages extra,1500,1500,0,0,0,Rima mam,18-04-2024,18-04-2024,NULL,NULL,1,3,3,18-04-2024 13.42,NULL,NULL,,9773863348
360,WC2023012500319,5969,22-04-2024,aptechnolinks.in,1 Mail id ,531,531,1,81,0,company account,22-04-2024,22-04-2024,NULL,NULL,1,8,8,22-04-2024 13.20,NULL,NULL,NULL,9872748945
361,WC2023012500320,3267,22-04-2024,,Domain+hosting space renewal,4956,4956,1,756,0,Company ac,22-04-2024,22-04-2024,NULL,NULL,1,3,3,22-04-2024 16.32,NULL,NULL,rajiv.jswl@gmail.com,9823217637
362,WC2023012500321,6016,23-04-2024,owniterp.com,Static website + Domain + Hosting ,1900,3800,0,0,1900,Rima mam ,29-04-2024,24-04-2024,NULL,NULL,1,8,8,23-04-2024 12.02,NULL,NULL,pkjain2812@gmail.com,7691933371
363,WC2023012500322,6101,24-04-2024,.manikprintpack.com,SEO,5900,5900,1,900,0,Company account,25-04-2024,25-04-2024,NULL,NULL,1,8,8,24-04-2024 16.13,NULL,NULL,NULL,9997044084
364,WC2023012500323,5894,25-04-2024,,QR Code modification,11800,11800,1,1800,0,,26-04-2024,NULL,NULL,NULL,1,1,1,25-04-2024 10.03,NULL,NULL,NULL,9625365554
365,WC2023012500324,5263,29-04-2024,,Hosting Space,3540,3540,1,540,0,Company ac,29-04-2024,29-04-2024,NULL,NULL,1,3,3,29-04-2024 10.04,NULL,NULL,,8791871553
366,WC2023012500325,6149,30-04-2024,www.leadsbaba.com,Static website 5 pages + Hosting,2000,3500,0,,1500,Rima mam,06-05-2024,01-05-2024,NULL,NULL,1,8,8,30-04-2024 9.41,8,30-04-2024 11.11,NULL,9504363125
367,WC2023012500326,6150,30-04-2024,,Website changes,2500,5000,0,0,2500,Rima Mam,03-05-2024,NULL,NULL,NULL,1,3,3,30-04-2024 9.46,NULL,NULL,,8800282864
368,WC2023012500327,3351,30-04-2024,https://drbrcmedicalcenter.com/,Payment is for SSL renewal of Dynamic website ( Drbrcmedicalcenter.com ),2000,2000,0,0,0,Rima mam,30-04-2024,30-04-2024,NULL,NULL,1,8,8,30-04-2024 16.27,NULL,NULL,NULL,9058981658
