name,company_name,phone,email,alternate_no,lead_type,lead_source,requirement
Shubham aggarwal whatsapp me,,8383817693,aggarwalshubham.6900@gmail.com,,between_2:00_pm_to_6:00_pm,Facebook Lead,
Ananta pradhan,,7981380383,pradhanananta113@gmail.com,,between_2:00_pm_to_6:00_pm,Facebook Lead,
paradipxdc,,7505415916,paradipjeena942@gmail.com,,between_2:00_pm_to_6:00_pm,Facebook Lead,
Rahul Raj,,7060287854,md.kanhajihospitality6628@gmail.com,,between_10:00_am_to_1:00_pm,Facebook Lead,
Pradeep Kumar Sinha,,8055403416,kawitapradeepsinha@gmail.com,,between_2:00_pm_to_6:00_pm,Facebook Lead,
Satish Sahu,,6263766861,satishkumarsahu568@gmail.com,,between_2:00_pm_to_6:00_pm,Facebook Lead,
