name,company_name,phone,email,alternate_no,lead_type,lead_source,requirement
Anil Kumar,,9877248081,ainatourandtravles@gmail.com,,Iparable,Facebook,
officia,,9689888509,sfayvv@gamil.com,,Iparable,Facebook,
Sanjay Kumar,,9045128980,sanjay90451289@gmail.com,,Iparable,Facebook,
