sales_id,contact,alt_contact,order_id,website,product,date,advance_payment,total_order_value,gst_applied,gst_amount,pending_payment,payment_mode,delivery_date,content_date,sale_month,resection_reason,rejected_project,order_closed_by,added_by,added_date,modified_by,modified_date
1,8923301332,0,WC2023010700001,royalmovers.in,,,999,999,0,,0,Gunjan Sir personal account,11-01-2023,0000-00-00,,,1,3,3,07-01-2023 7.39,3,25-01-2023 4.46
2,9867304001,0,WC2023010700002,,,,2000,2000,0,,0,Gunjan Sir personal account,07-01-2023,,,,1,7,3,07-01-2023 7.46,,
3,8095690490,7259533967,WC2023010900003,,Domain + 1 Mail Id,,1700,1700,0,,0,Paytm,11-01-2023,0000-00-00,,,1,7,7,09-01-2023 11.44,3,25-01-2023 6.52
4,9810584761,0,WC2023010900004,http://3asresearchsolutions.in,Static(4-5 pages),,999,1999,0,,0,,11-01-2023,0000-00-00,,,1,8,8,09-01-2023 11.56,8,16-06-2023 14.58
5,8803030103,0,WC2023011200005,http://bookwidus.in/,3 Lac Bulk Email,,9000,9000,0,,0,,12-01-2023,,,,1,3,3,12-01-2023 7.59,,
6,9555350015,,WC2023011200006,https://sbnutrition.in/,Ecom website,,5500,5500,0,,0,Asha phone pay,02-01-2023,,,,1,3,3,12-01-2023 10.05,,
7,9560144545,0,WC2023011600007,littlebumblebee.in,Dynamic(4-5 pages)+Domain+Hosting +1 Business mail id,,2000,6500,0,,4500,Gunjan sir Paytm,22-01-2023,0000-00-00,,,1,8,8,16-01-2023 5.30,8,30-01-2023 6.30
8,8053405545,,WC2023011700008,http://shivapackersandmovers.com/,Static website (4-5 pages)+ hosting,,1000,2000,0,,0,Asha ma'am Phonepay,22-01-2023,18-01-2023,,,1,8,8,17-01-2023 4.23,8,30-01-2023 6.23
9,9829182736,,WC2023011700009,https://globalpathinfotech.com/website/ayumax/,Pending payment Basic Ecommerce website ,,5030,5030,0,,0,HDFC Bank,17-01-2023,,,,1,5,5,17-01-2023 5.28,3,17-01-2023 8.06
10,9826299299,,WC2023011700010, wrinkle-free.co.in,Dynamic website (4-5 pages)+hosting+Domain+1 Business mail id,,3250,6500,0,,0,Gunjan sir Paytm,26-01-2023,19-01-2023,,,1,8,8,17-01-2023 11.31,8,30-01-2023 6.24
12,8586027123,8586027123,WC2023011800012,learning-wings.com/,SEO+SMO,,6000,9000,0,,0,Gunjan Sir personal account,17-01-2023,17-01-2023,,,1,3,3,18-01-2023 4.22,,
13,7905262292,,WC2023011800013,Mindgyan.in,Dynamic website with hosting+ 1 business mail id ,,3000,6000,0,,0,Axis,23-01-2023,19-01-2023,,,1,5,5,19-01-2023 4.11,5,19-01-2023 5.50
14,8383899630,0,WC2023011900014,thesaanvigupta.com,SMO,,10000,0,0,,-10000,cash,19-01-2023,19-01-2023,,,1,3,3,19-01-2023 10.03,3,17-02-2023 15.30
15,9637059589,,WC2023012100015,http://landoncorn.com,For static website with hosting,,1250,3000,0,,0,Gunjan Sir personal account,23-01-2023,21-01-2023,,,1,3,3,21-01-2023 7.35,3,28-01-2023 4.40
16,999981229,0,WC2023012100016,v.vibes.in,For logo,,1000,1000,0,,0,Gunjan Sir Personal ac,21-01-2023,21-01-2023,,,1,3,3,21-01-2023 7.38,,
17,12508998720,0,WC2023012300017, www.aonesecurity.ca,For Dynamic website with hosting+2 mail ids,,2900,5900,0,,0,Gunjan Sir Personal Ac,26-01-2023,23-01-2023,,,1,3,3,23-01-2023 9.31,,
18,9004898313,,WC2023012300018,,GMB,,1000,1000,0,,0,Paytm,25-01-2023,,,,1,7,7,23-01-2023 11.56,,
19,9461313963,,WC2023012300019,,Static Website + Hosting,,1770,1500,1,270,0,HDFC,30-01-2023,26-01-2023,,,1,7,7,23-01-2023 12.09,,
20,9881396939,0,WC2023012400020,medspecialcom,Dynamic Website with hosting@12500/-,,7000,7000,0,,0,,28-01-2023,24-01-2023,,,1,3,3,24-01-2023 4.59,3,24-01-2024 15.02
21,9829182736,,WC2023012400021,https://globalpathinfotech.com/website/ayumax/,Domain+Hosting,,4200,4200,0,,0,HDFC,25-01-2023,0000-00-00,,,1,5,5,24-01-2023 5.24,5,24-01-2023 5.26
26,9714914999,,WC2023012500022,Joshicommutec.com,Static website+Hosting+SSL  ,,1500,3200,0,,0,Axis,30-01-2023,27-01-2023,,,1,5,5,25-01-2023 6.50,5,15-03-2023 10.33
27,8147277564,,WC2023012500023,,Dynamic website + Hosting,,3540,7080,0,,0,HDFC,04-02-2023,27-01-2023,,,1,7,7,25-01-2023 6.57,,
28,9953064356,0,WC2023012500024,http://edupret.com/,Dynamic website with domain+hosting,,10000,10000,0,,0,Cash,30-01-2023,24-01-2023,,,1,3,3,25-01-2023 10.56,,
29,9999939992,0,WC2023012500025,,E-commerce Website Design in PHP -47000/-Shared Hosting Space - 5 GB 7000/- per YearReferral and,,5900,59000,1,9000,0,Company ac,27-01-2023,0000-00-00,,,1,3,3,25-01-2023 11.09,3,19-06-2023 15.02
30,9662935240,,WC2023012500026,,Static website (4-5 pages),,500,1000,0,,0,Gunjan sir Paytm,31-01-2023,28-01-2023,,,1,8,8,27-01-2023 5.28,8,30-01-2023 6.23
31,9870159867,0,WC2023012500027,https://safeguard-security.in/,Logo+Hosting,,2000,2000,0,,0,Asha Phone pay,30-01-2023,30-01-2023,,,1,3,3,30-01-2023 7.55,,
32,9414125443,,WC2023012500028,pradeepvidhani.com,Dynamic (4-5  pages)+Hosting +Domain,,2000,6000,0,,0,Gunjan sir paytm,10-02-2023,05-02-2023,,,1,8,8,31-01-2023 5.01,,
34,8923301332,0,WC2023012500029,http://www.flightbookingoncall.com,"Static Website
2 static website 4-5 pages- http://www.flightbookingoncall.com:2082/http://calltrave",,1998,1998,0,,0,Gunjan Sir Personal Ac,31-01-2023,31-01-2023,,,1,3,3,31-01-2023 11.07,,
35,8511381180,,WC2023012500030,http://tiphinbox.com/,SSL,,,1100,1,200,0,HDFC,01-02-2023,01-02-2023,,,1,8,8,01-02-2023 11.36,8,01-02-2023 11.49
36,1143555555,0,WC2023012500031,,Software Development QR Code (One Time),,,10000,1,1800,0,,01-02-2023,01-02-2023,,,1,3,3,01-02-2023 16.10,1,02-02-2023 15.22
37,7249888402,0,WC2023012500032,,software development,,,5000,1,900,0,Company Ac,02-02-2023,02-02-2023,,,1,3,3,02-02-2023 16.04,3,02-02-2023 16.05
39,9829298388,0,WC2023012500033,Event-india.com,Dynamic website with domain+hosting+logo+3 pages extra,,3000,7700,0,,4700,,03-02-2023,03-02-2023,,client drop the project.,0,3,3,03-02-2023 13.01,3,06-11-2023 13.47
40,8600297373,,WC2023012500034,janjirehospital.com,Dynamic 5 pages + Hosting + Domain,,3000,6000,0,,0,Gunjan sir Paytm,15-02-2023,10-02-2023,,,1,8,8,09-02-2023 12.43,,
41,8318016165,,WC2023012500035,,Dynamic website+ Domain+ Hosting ,,23000,23000,0,,0,Gunjan sir Paytm,20-02-2023,13-02-2023,,,1,7,7,10-02-2023 14.41,,
42,9891256009,0,WC2023012500036,http://nirikshakk.in/,Remaining payment of E-commerce+ Dynamic +Hosting space,,9000,9000,0,,0,Gunjan sir personal account,10-02-2023,10-02-2023,,,1,8,8,10-02-2023 17.22,,
44,9891390301,0,WC2023012500037,13-02-2023,Dynamic website (  5 pages ),,2000,4000,0,,0,Gunjan sir personal account paytm,15-02-2023,13-02-2023,,,1,8,8,13-02-2023 14.23,3,13-02-2023 14.34
47,8879099417,0,WC2023012500038,dynamicslogistic.com,4-5 pages Static website+ Domain + Hosting+ 1 business mail id  ,,1500,3000,0,,1500,paytm,17-02-2023,15-02-2023,,,1,5,5,14-02-2023 11.11,,
48,8700137394,0,WC2023012500039,v.vibes.in,4-5 pages static website,,1300,2600,0,,0,Gunjan Sir Personal A/c,16-02-2023,14-02-2023,,,1,3,3,14-02-2023 11.11,,
49,9958547989,0,WC2023012500040,,4-5 Pages Dynamic website with logo+hosting@7000/-,,3500,7000,0,,3500,Asha Phone Pay,18-02-2023,15-02-2023,,client drop the project.,0,3,3,15-02-2023 12.11,,
50,9821899419,,WC2023012500041,kapoorbeverages.com,"Mail id, Mail Id OTP",,1610,1610,0,,0,Paytm,15-02-2023,,,,1,7,7,15-02-2023 14.20,,
51,7906683408,0,WC2023012500042, rastriyahindusewak-sangh.in,"Static (5 pages)+ Domain + Hosting- 2500/-
",,1500,2500,0,,0,Paytm gunjan sir personal account,20-02-2023,16-02-2023,,,1,8,8,15-02-2023 17.45,,
52,9815141685,0,WC2023012500043,www.agoiludhiana.in,Ludhiyana / Dyanmic + Domain + Hosting + Admin login + Student login ,,6000,13000,0,,0,Paytm Gunjan sir personal account,25-02-2023,13-02-2023,,,1,8,8,17-02-2023 14.04,,
54,9428643786,0,WC2023012500044,,4-5 pages static website+hosting,,750,2200,0,,0,Gunjan Sir personal ac,20-02-2023,17-02-2023,,,1,3,3,17-02-2023 15.14,3,24-02-2023 16.13
55,8152931203,0,WC2023012500045,,Static website http://www.delhibusiness.in/design/clients/Idee-Planet/+domain renewal,,2200,2200,0,,0,Gunjan Sir Personal ac,21-02-2023,18-02-2023,,,1,3,3,18-02-2023 11.03,3,18-02-2023 11.12
56,9050660058,,WC2023012500046, atranspackermovers.com,Static + Domain + Hosting + 1 Business mail id total order value 3300/- after 1500 advance client backout,,1500,1500,0,,0,,22-02-2023,18-02-2023,,,1,8,8,18-02-2023 11.58,8,14-08-2023 17.03
57,9960747404,0,WC2023012500047,jaynarayanindustries.com,Static +Domain(.com)+ hosting,,2800,2800,0,,0,Personal account,26-06-2023,20-06-2023,,,1,8,8,18-02-2023 15.34,8,20-06-2023 10.30
58,9822166968,0,WC2023012500048,,"Domain Renewal: evergreenbarandrestaurant.com 
Email Boxes 1GB 
Web Hosting 
Domain: genesisfitne",,4100,4100,0,,0,Gunjan Sir Personal A/c,21-02-2023,21-02-2023,,,1,3,3,21-02-2023 11.50,,
59,9458277722,0,WC2023012500049, givinternationalmanpower.com,"Domain(.com)
",,1200,1200,0,,0,paytm Gunjan sir personal account,21-02-2023,21-02-2023,,,1,8,8,21-02-2023 13.57,,
60,9818735014,0,WC2023012500050,Faai.in,Static website +Domain+ Hosting,,2000,2500,0,,0,,27-02-2023,23-02-2023,,,1,7,7,21-02-2023 15.31,,
61,9650589991,,WC2023012500051,,Google my listing,,2000,2000,0,,0,paytm gunjan sir personal account,21-02-2023,21-02-2023,,,1,5,5,21-02-2023 17.17,,
62,60194807895,,WC2023012500052,Www.ahmadnor.com,Dynamic Website,,26757,26757,0,,0,,01-03-2023,23-02-2023,,,1,7,7,22-02-2023 12.06,,
63,9950186141,0,WC2023012500053,,Social Media Promotions,,2000,2000,0,,0,,22-02-2023,22-02-2023,,,1,3,3,22-02-2023 12.29,3,24-01-2024 14.58
64,9212106701,,WC2023012500054, allattestations.in,Dynamic 5 Pages,,1750,3500,0,,0,,28-02-2023,22-02-2023,,,1,8,8,22-02-2023 13.03,,
65,9888998228,0,WC2023012500055,,Dynamic website + Domain+ Hosting,,3250,6500,0,,0,Paytm,28-02-2023,24-02-2023,,,1,7,7,22-02-2023 17.33,,
66,9818735014,0,WC2023012500056,,Static website +Domain+ Hosting/New Order requirement Membership card Design with Backend ,,2000,2500,0,,0,Paytm,24-02-2023,,,,1,7,7,23-02-2023 16.17,,
67,9913430531,0,WC2023012500057,,Cab 24*7 Hosting charges,,1500,1500,0,,0,Gunjan Sir Personal Account,24-02-2023,24-02-2023,,,1,3,3,24-02-2023 11.15,,
68,8447632556,0,WC2023012500058,,Data Entry Software+QR+Salary Sheet+Scanner+hosting Space Changes,,5000,11800,0,,0,Company A/c,25-02-2023,25-02-2023,,,1,3,3,25-02-2023 12.21,,
69,9873887334,,WC2023012500059,elegantekids.in,E-commerce + Hosting,,2000,13000,0,,0,Paytm gunjan sir personal account,10-03-2023,28-02-2023,,,1,8,8,27-02-2023 17.40,,
70,9403393985,,WC2023012500060, shreeminfratech.com,Domain,,1416,1200,1,216,0,,01-03-2023,,,,1,7,7,28-02-2023 10.39,,
71,9953468634,0,WC2023012500061,http://look4newjobs.co.in,"1 Page Dynamic Website with CMS Panel to 
edit the pages with 2 mail ids + First year 
hosting fre",,3500,6000,1,1080,3580,Company Account,06-03-2023,01-03-2023,,,1,5,5,28-02-2023 9.45,,
72,9662935240,,WC2023012500062,Smtrust.org.in ,Logo change and contact number,,500,500,0,,0,Gunjan sir personal account,02-03-2023,02-03-2023,,,1,8,8,02-03-2023 15.14,,
73,9604469037,0,WC2023012500063,,"Static website (5 Pages) + hosting + Domain
",,1500,3186,1,486,0,,26-03-2023,07-03-2023,,,1,8,8,03-03-2023 9.17,3,24-03-2023 13.30
75,7874488833,0,WC2023012500064,http://Mypolicycare.com,Surat /Health insurance Dynamic website with domain+hosting with admin login+customer login+pdf file,,6500,13000,0,,6500,Gunjan Sir Personal Account,17-03-2023,10-03-2023,,Payment gatway issue,0,3,3,03-03-2023 15.44,3,10-03-2023 13.16
76,9766258461,0,WC2023012500065,,E-commerce Website ,,3000,3000,0,,0,,26-03-2023,15-03-2023,,,1,3,3,06-03-2023 11.27,3,24-01-2024 14.54
78,9065283352,0,WC2023012500066,,Renewal Domain: thekrishnaconsultants.com with 1 mail id +hosting space,,3505,3504.6,1,534.6,-0.4,Company account,10-03-2023,0000-00-00,,,1,3,3,10-03-2023 10.17,3,28-03-2023 16.40
79,8859260626,0,WC2023012500067,,Blog Page,,2000,4130,1,630,0,,26-03-2023,13-03-2023,,,1,3,3,13-03-2023 12.10,3,24-03-2023 13.29
80,9888998228,0,WC2023012500068,,GMB,,1000,2000,0,,1000,Paytm,20-03-2023,0000-00-00,,,1,7,7,14-03-2023 16.45,3,05-04-2023 13.56
81,9823217637,0,WC2023012500069,,"Service Charges for Paid ad promotion over Facebook- 5000/-
Facebook daily expense amount over Face",,5000,5000,0,,0,Gunjan Sir Personal Account,15-03-2023,15-03-2023,,,1,3,3,15-03-2023 15.16,,
82,8275342003,,WC2023012500070,,Website maintenance ,,10000,11800,1,1800,0,,26-03-2023,0000-00-00,,,1,7,7,15-03-2023 16.32,3,24-03-2023 13.28
83,8542064182,,WC2023012500071,,5 pages Dynamic website with Hosting ,,3500,7080,1,1080,0,,26-03-2023,18-03-2023,,,1,5,5,17-03-2023 12.56,3,24-03-2023 13.28
84,9891390301,,WC2023012500072,,4 pages static website,,1000,1770,1,270,0,,26-03-2023,20-03-2023,,,1,8,8,20-03-2023 17.47,8,21-04-2023 10.05
85,8810541214,,WC2023012500073,,Static website 5 pages + Hosting + Domain,,1500,3186,1,486,0,,26-03-2023,21-03-2023,,,1,8,8,21-03-2023 12.40,3,24-03-2023 13.28
86,9555777888,0,WC2023012500074,,Static 4 pages + Hosting,,750,1770,1,270,0,,26-03-2023,23-03-2023,,,1,8,8,22-03-2023 9.49,3,28-03-2023 11.21
87,7838113316,0,WC2023012500075,,Email Support,,2360,2360,1,360,0,,26-03-2023,0000-00-00,,,1,3,3,22-03-2023 11.26,3,24-03-2023 13.23
90,9811419240,0,WC2023012500076,,Dynamic website with domain+hosting+logo+ 3500 (2975/-words Content cost is extra 85 ppw share detai,,3000,13775.32,1,2101.32,0.32,,26-03-2023,0000-00-00,,,1,3,3,23-03-2023 12.23,3,12-04-2023 15.21
91,7503080009,,WC2023012500077,,Dynamic website 6 Pages + Domain + Hosting + mail id ,,4000,9440,1,1440,0,Company account,03-04-2023,25-03-2023,,,1,7,7,25-03-2023 15.52,3,29-03-2023 14.50
92,9650023506,0,WC2023012500078,,"Dynamic website with domain, hosting 13216/- with gst Final proposal share with customer she'll di",,6608,13216,1,2016,0,Company account,31-03-2023,0000-00-00,,,1,3,3,29-03-2023 12.46,3,29-03-2023 12.47
93,9466122235,0,WC2023012500079,interior,Dynamic website 6 pages + Hosting ,,3000,6490,1,990,0,company account,14-04-2023,01-04-2023,,,1,7,7,31-03-2023 17.22,7,13-04-2023 13.13
94,9819792128,0,WC2023012500080,www.vidyapeethinternational.com,Dynamic 7 pages + Hosting + Admin login + Student login ( mark sheet download ),,6000,13000,0,0,7000,Gunjan sir personal account,13-04-2023,06-04-2023,,,1,8,8,04-04-2023 10.57,,
95,8383806783,,WC2023012500081,savyconsultancyservices.com,Dynamic website 5 pages + Domain + Hosting ,,3500,7080,1,1080,0,company account,17-04-2023,13-04-2023,,,1,8,8,12-04-2023 17.09,8,12-04-2023 17.27
102,9466122235,,WC2023012500082,,Content + Gmb,,2775,2775,0,0,0,Gunjan Sir personal account,11-04-2023,11-04-2023,,,1,7,7,13-04-2023 13.17,,
105,8725011620,0,WC2023012500083,,Tracking Software= 20000,,20000,20000,0,,0,Gunjan Sir Personal Account,26-04-2023,13-04-2023,,,1,3,3,13-04-2023 14.00,3,17-05-2023 9.56
106,8445346734,0,WC2023012500084,www.getregalo.com,E-commerce website with basic features,,4000,11000,0,0,7000,Gunjan sir personal account,26-04-2023,17-04-2023,,,1,8,8,13-04-2023 17.42,,
107,7499551620,0,WC2023012500085,www.shabbiragro.com,Static 5 pages + Hosting + Domain + 1 Business mail id ,,2625,5251,1,801,0,Company account,19-04-2023,15-04-2023,,,1,8,8,14-04-2023 12.37,8,21-04-2023 10.01
108,9540990999,0,WC2023012500086,,"Certificate project 10,000+18% gst",,5000,11800,1,1800,0,Company ac,19-04-2023,15-04-2023,,,1,3,3,17-04-2023 12.19,,
109,7042775704,0,WC2023012500087,dreamvisasolutions.com,landing page + Hosting ,,1770,1770,1,270,0,company account,24-04-2023,21-04-2023,,,1,8,8,19-04-2023 15.51,,
110,8901564502,0,WC2023012500088,yavapaints.com,Static 5 pages + Hosting + Domain ,,2655,5310,1,810,0,company account ,25-04-2023,20-04-2023,,,1,8,8,19-04-2023 17.08,,
112,7411001312,0,WC2023012500089,,Your demo- 2nd phase,,14000,65000,0,,51000,Gunjan Sir Personal ac,11-05-2023,21-04-2023,,Call not picked.,1,1,3,21-04-2023 14.00,1,24-01-2024 15.06
113,9823217637,0,WC2023012500090,,Domain+hosting renewal,,2478,2478,1,378,0,Company ac,22-04-2023,22-04-2023,,,1,3,3,22-04-2023 12.20,,
120,7973118638,0,WC2023012500091,,SEO+SMO,,7000,7000,0,,0,Company ac,24-04-2023,0000-00-00,,,1,3,3,24-04-2023 16.06,3,24-01-2024 14.52
123,9466122235,,WC2023012500092,thezarainterior.com,SSL,,1200,1200,0,0,0,Gunjan sir personal account,27-04-2023,27-04-2023,,,1,8,8,27-04-2023 10.19,,
124,9058981658,,WC2023012500093,drbrcmedicalcenter.com,Domain shift + SSL,,2500,2500,0,0,0,Gunjan sir personal account,01-05-2023,01-05-2023,,,1,8,8,01-05-2023 10.49,,
125,9820104562,0,WC2023012500094,www.aandavan.in,Static 7 pages + Hosting ,,2950,2950,1,450,0,Company account (NEFT),09-05-2023,04-05-2023,,,1,8,8,03-05-2023 9.39,,
126,9987893810,0,WC2023012500095,http://supremesolvex.com/,Static website 4 pages ,,1999,1999,0,0,0,Gunjan Sir Personal ac,05-05-2023,03-05-2023,,,1,3,3,03-05-2023 11.43,,
127,9354856791,0,WC2023012500096,taxationmasters.in,Static 4 pages + hosting ,,1770,1770,1,270,0,Company account,09-05-2023,04-05-2023,,,1,8,8,03-05-2023 14.42,,
128,9625441073,0,WC2023012500097,,SEO Promotions,,5000,11800,1,1800,6800,Company account,31-05-2023,0000-00-00,,Sir client,1,1,3,04-05-2023 12.36,1,24-01-2024 15.06
129,9811097577,0,WC2023012500098,visawala.com,Dynamic website and webapp,,10000,37760,1,5760,27760,Company ac,18-05-2023,0000-00-00,,Sir client,1,1,3,04-05-2023 12.40,1,24-01-2024 14.48
130,9823217637,0,WC2023012500099,Dreamcatchersinteriondecorz.com,Testimonial page,,500,500,0,,0,Gunjan Sir Personal Ac,06-05-2023,05-05-2023,,,1,3,3,05-05-2023 16.21,3,05-05-2023 16.22
131,9860689292,0,WC20230125000100,nextgenbudgetcabservices.com,Dynamic website with domain+hosting,,1500,7668.82,1,1169.82,6168.82,Company ac,18-05-2023,,,"Client drop the project, Fund issue.",0,3,3,06-05-2023 9.21,,
132,8486104115,0,WC20230125000101,webcomindia.biz,1 Lac Bulk Email,,8850,8850,1,1350,0,company ac,05-05-2023,,,,1,3,3,06-05-2023 9.34,,
134,8178996447,0,WC20230125000102,,Dynamic website with payment gatway integartion,,11800,11800,1,1800,0,Company ac,18-05-2023,,,,1,3,3,10-05-2023 9.29,,
135,9106512562,,WC20230125000103,law-n-laws.com,Dynamic website + Hosting + 1 Business mail id ,,5900,5900,1,900,0,Company account ( Paytm ),19-05-2023,16-05-2023,,,1,8,8,15-05-2023 16.15,,
137,9823217637,0,WC20230125000104,Dreamcatchersinteriondecorz.com,"Service Charges for Paid ad promotion over Facebook- 4500/-
SMO-4000/-",,8500,8500,0,0,0,Gunjan Sir Personal ac,18-06-2023,18-05-2023,,,1,3,3,18-05-2023 12.42,,
138,9987893810,0,WC20230125000105,http://manasveeholidays.com:,http://manasveeholidays.com- website shifting,,1200,1200,0,0,0,Gunjan Sir Personal ac,19-05-2023,19-05-2023,,,1,3,3,19-05-2023 9.56,,
139,8725011620,0,WC20230125000106,,Tracking Software changes,,600,600,0,0,0,Gunjan Sir Personal ac,19-05-2023,19-05-2023,,,1,3,3,19-05-2023 14.02,,
140,9958833208,0,WC20230125000107,,"1 Application for purchase management,Vendor Management & Project Expensemanagement - 85,000/-",,130390,130390,1,19890,0,Company ac,10-06-2023,23-05-2023,,,1,3,3,23-05-2023 10.03,3,29-05-2023 17.12
141,9718589589,0,WC20230125000108,saaksharabhiyaan.com,Dynamic 15 pages website ,,12500,23995.3,1,3660.3,11495.3,Bank Transfer,29-05-2023,24-05-2023,,,1,8,8,23-05-2023 17.27,8,14-12-2023 15.58
142,7042775704,0,WC20230125000109,dreamvisasolutions.com,GMB + Address Change ,,1000,2000,0,0,1000,Gunjan sir Personal Account,17-05-2023,17-05-2023,,,1,8,8,23-05-2023 17.35,,
143,8725011620,0,WC20230125000110,,Tracking Software changes,,4000,4000,0,0,0,Gunjan Sir Personal ac,25-05-2023,25-05-2023,,,1,3,3,25-05-2023 9.29,,
144,7506693293,0,WC20230125000111,https://www.procosventures.com/,Static website hosting charges - 800,,800,800,0,0,0,Gunjan Sir Personal ac,25-05-2023,25-05-2023,,,1,3,3,25-05-2023 11.51,,
145,9823217637,0,WC20230125000112,,Email id renewal,,531,531,1,81,0,Gunjan Sir Personal ac,25-05-2023,25-05-2023,,,1,3,3,25-05-2023 12.30,,
146,8340562676,0,WC20230125000113,affix.in,Static 5 pages + Hosting,,2832,2832,1,432,0,Paytm( Company account ),01-06-2023,27-05-2023,,,1,8,8,27-05-2023 10.47,8,12-07-2023 10.22
147,8053405545,,WC20230125000114,asmpackers.com,Static website (4-5 pages)+ Hosting + domain,,3000,3000,0,,0,Paytm ( Gunjan sir personal account ),02-06-2023,29-05-2023,,,1,8,8,27-05-2023 14.30,8,03-06-2023 9.57
148,8586027123,8586027123,WC20230125000115,,Domain+hosting+1 email id renewal,,5000,3717,1,567,-1283,Company ac,03-06-2023,0000-00-00,,,1,3,3,29-05-2023 10.02,3,08-11-2023 13.11
149,9997656825,0,WC20230125000116,,School software ,,56250,265500,1,40500,209250,Company ac,30-06-2023,0000-00-00,,Sir client,1,1,3,29-05-2023 11.36,1,24-01-2024 14.47
150,7073242211,,WC20230125000117,,Dynamic 5 Pages + Hosting + SSL ,,6000,6000,0,0,0,Phonepay ( Gunjan sir Personal Account ),05-06-2023,31-05-2023,,,1,8,8,29-05-2023 17.33,,
151,8725011620,0,WC20230125000118,,Tracking Software changes,,6500,6500,0,0,0,Gunjan Sir Personal ac,30-05-2023,26-05-2023,,,1,3,3,30-05-2023 14.13,,
152,9008697965,0,WC20230125000119,supportindiasolutions.com,Static 5 pages + Hosting ,,1500,3000,0,0,1500,Gunjan sir Personal account ,05-06-2023,31-05-2023,,,1,8,8,31-05-2023 16.35,,
153,8859260626,0,WC20230125000120,,Domain+1 mail id renewal,,1947,1947,1,297,0,Company ac,01-06-2023,01-06-2023,,,1,3,3,01-06-2023 11.20,,
154,9911717776,0,WC20230125000121,,Static website,,11800,11800,1,1800,0,Company ac,01-06-2023,01-06-2023,,,1,3,3,01-06-2023 12.46,,
155,9902557754,0,WC20230125000122,https://www.rajvignas.in/,Dynamic 5 pages + Hosting + Domain,,7316,7316,1,1116,0,Company account ,07-06-2023,03-06-2023,,,1,8,8,03-06-2023 14.05,8,09-06-2023 12.46
156,8859260626,0,WC20230125000123,,Hosting+1 mail id renewal,,1711,1711,1,261,0,Company ac,06-06-2023,06-06-2023,,,1,3,3,06-06-2023 10.42,,
157,9717362310,0,WC20230125000124,,Static website Hosting Renewal charges,,1416,1416,1,216,0,Company ac,07-06-2023,07-06-2023,,,1,3,3,07-06-2023 14.55,,
158,7838113316,0,WC20230125000125,,5 gmail id renewal,,17700,17700,1,2700,0,Company ac,07-06-2023,07-06-2023,,,1,3,3,07-06-2023 16.51,,
159,8090426001,0,WC20230125000126,http://hiratours.com/, Enquiry form only,,1000,1000,0,0,0,Rima mam Account,15-06-2023,14-06-2023,,,1,8,8,14-06-2023 17.23,,
160,8725011620,0,WC20230125000127,,Tracking Software changes,,1500,1500,0,0,0,Gunjan Sir Personal ac,16-06-2023,16-06-2023,,,1,3,3,16-06-2023 12.02,,
161,9823217637,0,WC20230125000128,,"Renewal Service Charges for Paid ad promotion over Facebook- 4500/-
SMO-4000/-",,8500,8500,0,0,0,RIMA MAM,19-07-2023,20-06-2023,,,1,3,3,20-06-2023 10.25,,
162,7206760058,0,WC20230125000129,,"Domain 1200, 1 email-600, hosting-1500 website- 6000",,4000,9300,0,0,5300,Cash,21-06-2023,27-06-2023,,,1,1,1,21-06-2023 16.05,,
163,9702364890,0,WC20230125000130,https://www.1stopsolution.in.net/,Dynamic 5 pages + Registration link direction,,7080,7080,1,1080,0,Company account,03-07-2023,28-06-2023,,,1,8,8,27-06-2023 13.14,,
164,9872577555,0,WC20230125000131,www.hmcotsyn.com,Static 6 pages ,,1500,3540,1,540,2040,Company account,05-07-2023,30-06-2023,,,1,8,8,29-06-2023 16.38,8,30-06-2023 10.06
165,7045481757,0,WC20230125000132,http://orriltrade.in/,static 5 pages + hosting,,3540,3540,1,540,0,paytm,07-07-2023,10-07-2023,,,1,8,8,01-07-2023 15.24,8,24-07-2023 14.21
166,9173443258,0,WC20230125000133,divyajagatsansthaan.com,Dynamic 5 pages + Hosting + Domain,,7670,7670,1,1170,0,phonepay,11-07-2023,05-07-2023,,,1,8,8,01-07-2023 16.04,,
167,9599304003,,WC20230125000134,wishfullhub.com,E-commerce + Domain + Hosting + 1 Business mail id ,,17700,17700,1,2700,0,Bank transfer,17-07-2023,05-07-2023,,,1,8,8,03-07-2023 15.23,,
168,9634662222,0,WC20230125000135,,Static website hosting renewal+changes,,1550,1550,0,0,0,Rima Mam,04-07-2023,07-07-2023,,,1,3,3,04-07-2023 12.07,,
169,9871195934,0,WC20230125000136,,Website changes,,2360,2360,1,360,0,Company ac,05-07-2023,05-07-2023,,,1,3,3,05-07-2023 15.41,,
170,9990084367,0,WC20230125000137,,Hosting Renewal charges,,2360,2360,1,360,0,Company ac,07-07-2023,07-07-2023,,,1,3,3,07-07-2023 9.44,,
171,9872295934,0,WC20230125000138, Melkhetpower.in,"Dynamic Website with CMS Panel to edit 
the pages (10-12 pages) in PHP with logo+Hosting
15,000/- ",,20060,20060,1,3060,0,Company ac,21-07-2023,,,,1,3,3,10-07-2023 12.58,,
172,7506693293,,WC20230125000139,profilacoscare.com,Domain: profilacoscare.com +hosting+1mail id+ssl,,4189,4189,1,639,0,Company ac,11-07-2023,,,,1,3,3,11-07-2023 11.38,,
174,8130704871,0,WC20230125000140,,Bulk Mail 1 Lac@5000/-,,5900,5900,1,900,0,Company ac,13-07-2023,,,,1,3,3,13-07-2023 9.43,,
175,9880382400,0,WC20230125000141,http://mezandental.com,Dental clinic-Dynamic website with domain+hosting,,7669,7668.82,1,1169.82,-0.18,Company ac,21-07-2023,0000-00-00,,,1,3,3,14-07-2023 16.15,3,14-07-2023 16.19
177,8439412180,0,WC20230125000142,,"4 Pages Static Website with First year hosting free- 2999/-
Extra 5 Pages-1250/-
Domain-1200/-
",,6439,6429.82,1,980.82,-9.18,Company ac,29-07-2023,,,,1,3,3,17-07-2023 15.03,,
178,8108951743,0,WC20230125000143,,"450*5 Mail ids= 2250/-
For Domain+Hosting+2 mail ids Renewal= 3100/-
5350+18% Gst= 6313/-
Address update= 187/-

Roundoff amount- 6500/-",,6534,6533.66,1,996.66,-0.34,Company ac,22-07-2023,,,,1,3,3,17-07-2023 16.11,,
179,8847045235,0,WC20230125000144, Pindizplaza.com,Dynamic 5 pages + Hosting ,,2000,5500,0,0,3500,Rima mam account,24-07-2023,19-07-2023,,,1,8,8,18-07-2023 11.53,,
180,8130623515,0,WC20230125000145,,"5pages static website -6500
1page extra-250
Hosting Space- 1500

Amount=8250+18%gst= 9735/-",,9736,9735,1,1485,-1,Company ac,22-07-2023,19-07-2023,,,1,3,3,19-07-2023 15.17,,
181,7506693293,0,WC20230125000146,,Procos venture ssl renewal,,1180,1180,1,180,0,Company ac,20-07-2023,20-07-2023,,,1,3,3,20-07-2023 15.19,,
182,7045481758,0,WC20230125000147,http://orriltrade.in/,SSL,,1500,1500,0,0,0,Rima mam,24-07-2023,24-07-2023,,,1,8,8,24-07-2023 15.12,,
183,9505123489,0,WC20230125000148,swarmahathisangeetalay.com,Dynamic 5 pages + Hosting (5500 )+ 2 extra pages + 2 section - 2500/-,,9440,9440,1,1440,0,Phone pay,31-07-2023,26-07-2023,,,1,8,8,26-07-2023 9.32,8,11-10-2023 13.10
184,9099881490,0,WC20230125000149,,"5pages Dynamic website with admin panel with Domain.com+1business Mail id+hosting- 6499/-

Extra Subpages- 6- 450*6=  2700/-

Amount- 9199+18%gst=10,855/-/-

50%Advance- 5428/-",,10855,10854.82,1,1655.82,-0.18,Company ac,31-07-2023,,,,1,3,3,26-07-2023 16.31,,
185,8901564502,0,WC20230125000150,http://yavapaints.com/,5 Business mail id ,,2655,2655,1,405,0,bank transfer,27-07-2023,27-07-2023,,,1,8,8,27-07-2023 13.17,,
186,9880382400,0,WC20230125000151,,"Blog Page- 2500+18% gst=2950/-

Proposal share",,2950,2950,1,450,0,Company ac,28-07-2023,,,,1,3,3,28-07-2023 10.00,,
187,9880382400,0,WC20230125000152,http://mezandental.com/,"SSL Certificate

Proposal share",,2360,2360,1,360,0,Company ac,29-07-2023,,,,1,3,3,29-07-2023 9.41,,
188,9.1869E+11,0,WC20230125000153,Drivenservices.in,jaipur / construction / Static 5 pages + Hosting ,,1000,3000,0,,2000,Rima mam account,08-08-2023,04-08-2023,,,1,8,8,02-08-2023 14.25,8,02-08-2023 14.34
189,7412804442,,WC20230125000154,superkick.in,landing page + Hosting + Domain,,1850,3700,0,0,1850,Rima mam Account,10-08-2023,05-08-2023,,,1,8,8,04-08-2023 16.41,,
190,9667035852,0,WC20230125000155,,4 pages static website with hosting- 2999,,1599,3538.82,1,539.82,1939.82,Company ac,12-08-2023,11-08-2023,,"client drop the project, not satisfied with our design.",0,3,3,07-08-2023 12.49,,
191,9911882523,,WC20230125000156,https://abacuspathshala.in/,Renewal Domain + Hosting ,,3186,3186,1,486,0,company account,08-08-2023,08-08-2023,,,1,8,8,08-08-2023 12.19,3,08-08-2023 15.48
192,9902557754,0,WC20230125000157,rajvignas.com,5 Business mail id ,,2650,2650.28,1,404.28,0.28,company account,09-08-2023,08-08-2023,,,1,8,8,08-08-2023 18.04,8,10-08-2023 10.30
193,8439412180,0,WC20230125000158,vaidikjyotishanusandhankendra.com,Service Charges for Paid ad promotion Over Facebook,,7080,7080,1,1080,0,Company ac,09-08-2023,09-08-2023,,,1,3,3,09-08-2023 9.58,,
194,8872202179,0,WC20230125000159,eurosecureindia.com,Renewal Domain: eurosecureindia.com +Hosting Space+2mail box,,4248,4248,1,648,0,Company ac,09-08-2023,09-08-2023,,,1,3,3,09-08-2023 11.39,,
196,9810070050,0,WC20230125000160,vmaksconstructions.com,"Develop RIM Application for Maintenance 
",,20119,80476,1,12276,60357,Company ac,31-08-2023,,,,1,1,3,10-08-2023 10.17,,
197,8076143596,,WC20230125000161,unifeepay.com,Dynamic 6 pages ,,3000,6000,0,0,3000,Rima mam account bank transfer,17-08-2023,12-08-2023,,,1,8,8,11-08-2023 9.44,,
198,9987893810,0,WC20230125000162,,4 pages static website,,2000,2000,0,0,0,Rima Mam,17-08-2023,14-08-2023,,,1,3,3,14-08-2023 10.13,,
199,8725011620,0,WC20230125000163,,Tracking Software changes,,3000,3000,0,0,0,Rima Mam,14-08-2023,14-08-2023,,,1,3,3,14-08-2023 16.44,,
200,9821899419,0,WC20230125000164,kapoorbeverages.com,Domain renewal- kapoorbeverages.com,,1416,1416,1,216,0,Company ac,14-08-2023,14-08-2023,,,1,3,3,14-08-2023 17.27,,
201,9990726287,0,WC20230125000165,,Ecommerce website 14500/- with payment gateway integration.,,14500,14500,0,,0,Rima Mam,31-08-2023,21-08-2023,,,1,3,3,21-08-2023 13.12,3,22-08-2023 12.55
202,9833522287,0,WC20230125000166,www.smartinvesto.com,Dynamic 5 pages ,,2500,5310,1,810,2810,company account,30-08-2023,24-08-2023,,,1,8,8,24-08-2023 10.41,,
203,9099881490,0,WC20230125000167,,Website changes- https://demos.iparable.co.in/website/medicscientific/index.php,,500,500,0,0,0,Company ac,24-08-2023,,,,1,3,3,24-08-2023 13.10,,
204,8318016165,,WC20230125000168,,admin@nkcvinstitute.com changes,,4500,4500,0,0,0,RIMA MAM,25-08-2023,,,,1,3,3,25-08-2023 15.52,,
205,8810541214,,WC20230125000169,,SSL,,1500,1500,0,,0,PhonePay,25-08-2023,25-08-2023,,,1,8,8,25-08-2023 16.06,3,01-09-2023 13.30
206,9650033988,0,WC20230125000170,,34 Pages static website with 1 page dynamic with 5 year Hosting plan- 24000/-,,28320,28320,1,4320,0,Company ac,05-09-2023,28-08-2023,,,1,3,3,26-08-2023 10.15,,
207,9428643786,0,WC20230125000171,,4 pages static website -1500,,1500,1500,0,0,0,Rima Mam,31-08-2023,,,,1,3,3,28-08-2023 13.12,,
208,9920044474,0,WC20230125000172,,Single Vendor Ecommerce Website,,20000,21240,1,3240,1240,Company ac,07-09-2023,0000-00-00,,Sir client,1,1,3,28-08-2023 13.15,1,24-01-2024 14.45
209,7508986222,0,WC20230125000173,phfs.in,Dynamic website + Domain + Hosting + 1 Business mail id ,,11210,11210,1,1710,0,Bank Transfer,08-09-2023,30-08-2023,,,1,8,8,29-08-2023 15.08,8,12-01-2024 10.04
210,9916514008,0,WC20230125000174,,6 Pages Dynamic Website on WordPress. ,,5000,5000,0,,0,Rima Mam,08-09-2023,01-09-2023,,,1,3,3,01-09-2023 12.04,3,20-09-2023 9.49
211,8130623515,0,WC20230125000175,,website changes,,2950,2950,1,450,0,Company ac,01-09-2023,01-09-2023,,,1,3,3,01-09-2023 16.01,,
212,9987893810,0,WC20230125000176,,5 Pages Static Website,,2250,2250,0,0,0,Rima Mam,07-09-2023,04-09-2023,,,1,3,3,04-09-2023 15.16,,
213,8866060997,0,WC20230125000177,,Hosting Renewal- https://navbharatholidays.com/,,1770,1770,1,270,0,Company ac,06-09-2023,06-09-2023,,,1,3,3,06-09-2023 10.14,,
214,9958833208,0,WC20230125000178,,2 ssl cost@3000/-,,3540,3540,1,540,0,,06-09-2023,06-09-2023,,,1,3,3,06-09-2023 12.09,,
215,9650589991,0,WC20230125000179,kiarainteriors.com,"New Domain: kiarainteriors.com 	
Hosting Space  	 
",,3186,3186,1,486,0,Company ac,06-09-2023,08-09-2023,,,1,3,3,06-09-2023 16.13,,
216,7526015666,0,WC20230125000180,glazon.in,ssl+hosting space renewal,,2360,2360,1,360,0,Company ac,07-09-2023,07-09-2023,,,1,3,3,06-09-2023 16.17,,
217,9867304001,0,WC20230125000181,,Hosting Renewal,,1770,1770,1,270,0,Company ac,08-09-2023,08-09-2023,,,1,3,3,08-09-2023 10.54,,
218,9810415241,0,WC20230125000182,,4-5 Pages static website(HTML) +10 pages extra+2business mail ids+ssl+google my listing,,12271,12271,1,1872,0,,16-09-2023,11-09-2023,,,1,3,3,11-09-2023 13.48,,
219,9717106928,0,WC20230125000183,,Hosting Space +3 mail ids renewal,,3363,3363,1,513,0,Company ac,12-09-2023,,,,1,3,3,12-09-2023 10.15,,
220,9.71565E+11,0,WC20230125000184,,Landing Page,,3500,3500,0,0,0,Rima Mam,16-09-2023,13-09-2023,,,1,3,3,13-09-2023 9.40,,
221,8808485750,,WC20230125000185,napians.com,Dynamic 4-5 pages on wordpress,,6490,6490,1,990,0,Company account,20-09-2023,14-09-2023,,,1,8,8,14-09-2023 14.42,,
222,9099881490,0,WC20230125000186,,Domain- http://medicscientific.com/ SSL+Website Changes,,2950,2950,1,450,0,Company ac,14-09-2023,15-09-2023,,,1,3,3,14-09-2023 15.58,,
223,9811978166,0,WC20230125000187,,"Dynamic Website with Ecom feature future update ready (in 
phase-1) 
",,30680,30680,1,4680,0,Rima Mam+Company ac,22-09-2023,,,,1,3,3,15-09-2023 10.51,,
224,9650595863,,WC20230125000188,esspn.in,Dynamic 5 pages + Domain + Hosting + 1 B-id,,3835,7670,1,1170,3835,paytm,28-09-2023,22-09-2023,,,1,8,8,21-09-2023 17.32,,
225,7567076000,0,WC20230125000189,,4 pages static website with hosting,,2000,2000,0,,0,Company ac,27-09-2023,30-09-2023,,,1,3,3,27-09-2023 14.49,3,24-01-2024 14.40
226,9428643786,0,WC20230125000190,,6 pages static website,,1750,2100,0,0,350,Rima Mam,07-10-2023,04-10-2023,,Call not picked .,0,3,3,04-10-2023 10.52,,
227,9987893810,0,WC20230125000191,,4 pages static website,,2000,2000,0,0,0,Rima Mam,07-10-2023,04-10-2023,,,1,3,3,04-10-2023 10.56,,
228,9403393985,,WC20230125000192,,Domain-shreeminfratech.com +hosting space renewal,,2950,2950,1,450,0,Company ac,12-10-2023,,,,1,3,3,12-10-2023 9.45,,
229,6386862362,,WC20230125000193,mwrs.shop,Dynamic website 5 Pages + Hosting + 1 Business mail id ,,6500,6500,0,0,0,Rima mam Account,20-10-2023,13-10-2023,,,1,8,8,12-10-2023 16.47,,
230,9312562666,0,WC20230125000194,,50k Bulk Email,,3540,3540,1,540,0,Company ac,17-10-2023,17-10-2023,,,1,3,3,17-10-2023 15.00,,
231,8057154979,,WC20230125000195,mdeei.com,Dynamic 5 pages ,,2000,4500,0,0,2500,Paytm Rima mam Account,28-10-2023,25-10-2023,,,1,8,8,25-10-2023 13.09,,
232,8725011620,0,WC20230125000196,,Tracking Software changes,,4000,4000,0,0,0,Rima Mam,26-10-2023,,,,1,3,3,26-10-2023 14.38,,
233,9810231498,,WC20230125000197,www.tropicanapower.com,Dynamic 7 pages ,,9440,9440,1,1440,0,Company account,03-11-2023,30-10-2023,,,1,8,8,30-10-2023 12.59,,
234,9880322519,,WC20230125000198,aristaproducts.com,Domain + 1 Business mail id renewal,,2000,2000,1,305,0,Company account,31-10-2023,31-10-2023,,,1,8,8,31-10-2023 13.13,,
235,7567076000,0,WC20230125000199,,Dynamic website with hosting ,,35400,35400,1,5400,0,Company ac,16-11-2023,01-11-2023,,,1,3,3,02-11-2023 10.29,,
236,9350191991,0,WC20230125000200,,static +dynamic Website development,,17500,41300,1,6300,23800,Company ac,30-11-2023,03-11-2023,,,1,1,3,03-11-2023 15.02,1,24-01-2024 14.46
237,9987893810,0,WC20230125000201,,4 Pages Static Website,,2000,2000,0,0,0,Rima Mam Axis Bank,06-11-2023,06-11-2023,,,1,3,3,06-11-2023 10.32,,
238,9873594929,0,WC20230125000202,,primerosegoa.com Domain+hosting+2 mail ids with 1gb space renewal,,4248,4248,1,648,0,Company ac,06-11-2023,06-11-2023,,,1,3,3,06-11-2023 12.09,,
239,9793339437,0,WC20230125000203,,Hosting Renewal,,1770,1770,1,270,0,Company ac,07-11-2023,07-11-2023,,,1,3,3,07-11-2023 15.05,,
240,9811978166,0,WC20230125000204,,"Hosting and ssl charges
",,7080,7080,1,1080,0,Company ac,09-11-2023,08-11-2023,,,1,3,3,08-11-2023 13.22,,
241,8586027123,8586027123,WC20230125000205,,Bulk whtsapp- 3750+18% gst=4425-1283(last balance)= 3142/- Received,,4425,4425,1,675,0,Company ac,08-11-2023,08-11-2023,,,1,3,3,08-11-2023 13.30,,
242,9929866424,0,WC20230125000206,,Dynamic website with Domain+Hosting,,7669,7669,1,1170,0,Company ac,09-11-2023,18-11-2023,,,1,3,3,09-11-2023 13.47,,
243,9910181115,0,WC20230125000207,,Lead Management,,50000,350000,0,,300000,Company ac,30-11-2023,10-11-2023,,,1,1,3,10-11-2023 10.46,1,15-02-2024 19.07
244,8959640360,,WC20230125000208, engineerbhaiservice.com,Dynamic website + Domain + Hosting ,,6500,6500,0,0,0,Rima mam account,23-11-2023,18-11-2023,,,1,8,8,16-11-2023 14.32,,
245,8693092010,0,WC20230125000209,,Dynamic Website with logo+hosting,,10619,10619,1,1620,0,Company ac,23-11-2023,17-11-2023,,,1,3,3,17-11-2023 14.37,,
246,9888504667,0,WC20230125000210,,"Domain Renewal=1200
Hosting space- 800
1 email id- 450=2450/-",,2891,2891,1,441,0,Company ac,23-11-2023,20-11-2023,,,1,3,3,20-11-2023 13.51,,
247,7906683408,,WC20230125000211,,Dynamic website 5 pages - 4500/-,,4500,4500,0,,0,rima mam account,30-11-2023,24-11-2023,,,1,8,8,23-11-2023 11.43,3,23-11-2023 16.55
256,9911882523,,WC20230125000212,abacuspathshala.in,SMO -,,5000,5000,0,0,0,rima mam account,23-12-2023,23-11-2023,,,1,8,8,23-11-2023 17.03,,
257,7042775704,,WC20230125000213,dreamvisasolutions.com,Dynamic website 6 pages + Hosting + 6 extra pages + some changes in landing page ,,10500,10500,0,,0,Rima mam account,04-12-2023,28-11-2023,,,1,8,8,27-11-2023 9.54,8,09-01-2024 17.24
258,9899336565,0,WC20230125000214,,5-7 Pages Dynamic Website with Admin Panel (PHP)+Hosting Space,,11799,11799,1,1800,0,Company ac,06-12-2023,28-11-2023,,,1,3,3,28-11-2023 15.21,,
259,7838113316,0,WC20230125000215,,"5 gmail ids= customercare@evanicopro.com
accounts@evanicopro.com
Sales@evanicopro.com
admin@evanicopro.com
info@evanicopro.com",,17700,17700,1,2700,0,Company ac,01-12-2023,30-11-2023,,,1,3,3,30-11-2023 16.19,,
260,9987893810,0,WC20230125000216,,5 Pages Static Website,,2250,2250,0,0,0,Rima Mam,12-12-2023,07-12-2023,,,1,3,3,07-12-2023 10.56,,
261,9990726287,0,WC20230125000217,,ZB Buyer changes,,7000,7000,0,0,0,Rima Mam,07-12-2023,07-12-2023,,,1,3,3,07-12-2023 14.49,,
262,9873434556,0,WC20230125000218,,8-10 Pages Dynamic website with ssl+4 extra pages,,21004,21004,1,3204,0,Company ac,16-12-2023,08-12-2023,,,1,3,3,08-12-2023 10.10,3,19-01-2024 14.23
263,8586027123,8586027123,WC20230125000219,,5 mail ids renewal+12k bulk whtsapp,,4425,4425,0,0,0,Company ac,08-12-2023,13-12-2023,,,1,3,3,08-12-2023 13.26,,
264,999981229,0,WC20230125000220,,Domain-vvibes.in+hosting space+3mail ids Renewal,,4189,4189,1,639,0,Company ac,14-12-2023,11-12-2023,,,1,3,3,11-12-2023 12.55,,
265,8725011620,0,WC20230125000221,,Tracking Software changes,,4000,4000,0,0,0,Rima Mam,12-12-2023,12-12-2023,,,1,3,3,12-12-2023 12.26,,
266,9509695086,,WC20230125000222,www.Balajiorgochem.com,Domain + Hosting renewal ,,3776,3776,1,576,0,Bank transfer,13-12-2023,13-12-2023,,,1,8,8,13-12-2023 17.44,,
267,9911717776,0,WC20230125000223,,Hosting Space and ssl renewal,,6490,6490,1,990,0,Company ac,14-12-2023,16-12-2023,,,1,1,3,14-12-2023 14.58,1,24-01-2024 14.44
268,8901564502,,WC20230125000224,http://yavapaints.com/, 5 Business mail id,,2655,2655,1,405,0,Company account,14-12-2023,14-12-2023,,,1,8,8,14-12-2023 16.07,,
269,9620565970,,WC20230125000225,Payanaholidays.com ,Dynamic website + Hosting ,,8260,8260,1,1260,0,Company account ( Google pay ),23-12-2023,18-12-2023,,,1,8,8,15-12-2023 12.57,8,15-01-2024 17.59
270,7206741458,0,WC20230125000226,,Solar Static website with domain+hosting ,,4450,4450,0,,0,Rima Mam,18-12-2023,15-12-2023,,,1,3,3,15-12-2023 13.48,3,31-01-2024 14.30
271,9987893810,0,WC20230125000227,,https://manasveeholidays.com/ changes,,300,300,0,0,0,Rima mam,18-12-2023,,,,1,3,3,18-12-2023 11.19,,
272,9811378655,0,WC20230125000228,,Domain- -brtcs.com+Hosting+1mail box,,4307,4307,1,657,0,Company ac,18-12-2023,18-12-2023,,,1,3,3,18-12-2023 15.14,,
273,7303617427,0,WC20230125000229,,4-5 Pages Dynamic website with CMS Panel+domain+Hosting,,5750,11500,0,0,5750,Rima Mam,27-12-2023,,,,1,3,3,19-12-2023 13.29,,
274,9.7157E+11,0,WC20230125000230,,5-7 Pages Dynamic Website+Domain+Hosting space+5 mail id 2gb space,,10750,21500,0,0,10750,Iparable ac,31-12-2023,,,,1,3,3,20-12-2023 10.06,,
275,9662935240,,WC20230125000231, combatant.in,website sifting from one hosting to another hosting,,1000,1000,0,0,0,Rima mam account,19-12-2023,20-12-2023,,,1,8,8,20-12-2023 14.50,,
276,9260994375,0,WC20230125000232,,Domain-agnixclassses.com+hosting+1 Mail id renewal,,10207,10207,1,1557,0,Company ac,21-12-2023,21-12-2023,,,1,3,3,21-12-2023 14.55,,
277,8725011620,0,WC20230125000233,,Tracking Software changes,,500,500,0,0,0,Rima Mam,22-12-2023,22-12-2023,,,1,3,3,22-12-2023 11.33,,
278,9891256009,,WC20230125000234,craftyhomes.in,Hosting renewal For Dynamic website ( 1661 )and E-commerce website (3000),,5500,5499.98,1,838.98,-0.02,Company account,25-12-2023,25-12-2023,,,1,8,8,25-12-2023 13.06,8,25-12-2023 13.14
279,8221812790,0,WC20230125000235,rodentokill.com,Dynamic website 5-6 pages ,,2500,6490,1,990,3990,Bank transfer,02-01-2024,27-12-2023,,,1,8,8,25-12-2023 14.57,,
280,9315630678,0,WC20230125000236,,SSL+Hosting Space Renewal,,8850,8850,1,1350,0,Company ac,29-12-2023,30-12-2023,,,1,3,3,29-12-2023 11.52,,
281,8586027123,8586027123,WC20230125000237,,School management software,,14750,14750,1,2250,0,Company ac,09-02-2024,02-01-2024,,,1,3,3,02-01-2024 15.41,,
282,9820104562,0,WC20230125000238,http://www.aandavan.in/,SSL,,2000,2000,0,0,0,Rima mam account,04-01-2024,04-01-2024,,,1,8,8,04-01-2024 14.48,,
283,9058981658,,WC20230125000239,Drbrcmedicalcenter.com,Payment is for Hosting renewal of Dynamic website ( Drbrcmedicalcenter.com ),,2500,2500,0,0,0,Rima mam,10-01-2024,10-01-2024,,,1,8,8,10-01-2024 12.27,,
284,8059444728,,WC20230125000240,yavapaints.com,Dynamic website 5 pages + Hosting + SSL,,10000,10000.5,1,1525.5,0.5,Bank transfer,19-01-2024,15-01-2024,,,1,8,8,12-01-2024 14.15,8,02-02-2024 9.37
285,9826299299,,WC20230125000241,wrinkle-free.co.in,Domain + Hosting + 1 Mail id renewal,,4897,4897,1,747,0,company account ,17-01-2024,17-01-2024,,,1,8,8,17-01-2024 15.29,,
286,9958833208,0,WC20230125000242,https://erp.hindiko.co.in/,software changes,,5900,5900,1,900,0,Company ac,18-01-2024,17-01-2024,,,1,3,3,17-01-2024 16.13,3,20-01-2024 9.17
287,9535850386,0,WC20230125000243,yatra2pooja.com,Dynamic website 5 page + Domain + Hosting ,,3500,7000,0,0,3500,Rima mam,03-02-2024,29-01-2024,,,1,8,8,24-01-2024 13.24,,
288,9873434556,0,WC20230125000244,,Hosting Space,,3540,3540,1,540,0,Company ac,31-01-2024,,,,1,3,3,31-01-2024 10.06,,
289,,,WC20230125000245,cceglobal.in,shipra / Visa services / Dynamic website wordpress -15 pages ,,2000,7000,0,0,5000,cash,08-02-2024,02-02-2024,,,1,8,8,01-02-2024 10.49,,
290,,,WC20230125000246,,1 mail id renewal,,531,531,1,81,0,Company ac,01-02-2024,01-02-2024,,,1,3,3,01-02-2024 13.02,,
291,9888504667,0,WC20230125000247,,ssl renewal,,1770,1770,1,270,0,Company ac,02-02-2024,,,,1,3,3,02-02-2024 13.58,,
292,,,WC20230125000248,Thestreetviewrestro.com,Landing page + Domain + Hosting + SMO,,4200,8000,0,,3800,Rima mam,09-02-2024,05-02-2024,,,1,8,8,02-02-2024 17.48,8,05-02-2024 11.48
293,,,WC20230125000249,hindpackers.com,Static website + Domain + Hosting ,,4000,4000,0,,0,Rima mam,08-02-2024,03-02-2024,,,1,8,8,03-02-2024 9.30,8,03-02-2024 9.56
294,9414125443,,WC20230125000250,pradeepvidhani.com,Domain renewal,,1416,1416,1,216,0,company account,03-02-2024,03-02-2024,,,1,8,8,03-02-2024 9.35,,
295,8198000414,0,WC20230125000251,Webbiesmaster.com, Dynamic 5-6 pages only - 5000/-,,3000,5900,1,900,2900,Company account,11-02-2024,05-02-2024,,,1,8,8,03-02-2024 15.48,8,03-02-2024 15.52
296,7411001312,0,WC20230125000252,,hosting and email renewal,,7400,7400,0,0,0,axis,06-02-2024,,,,1,1,1,06-02-2024 19.56,,
297,,,WC20230125000253,,20-25 pages Dynamic website ,,14750,29500,1,4500,14750,Company ac,29-02-2024,,,,1,3,3,07-02-2024 10.22,,
298,,,WC20230125000254,kcvcouncil.com,add Scanner in website + Hosting renewal ,,5500,5500,0,0,0,Rima mam account,07-02-2024,07-02-2024,,,1,8,8,07-02-2024 12.14,,
299,,,WC20230125000255,theendocrine.com,Right now he want to book Domain only,,1200,1200,0,0,0,Rima mam ,08-02-2024,08-02-2024,,,1,8,8,08-02-2024 11.40,,
300,,,WC20230125000256,theendocrine.com,Static website 5 pages + Hosting ,,3000,3000,0,0,0,Rima mam account,15-02-2024,09-02-2024,,,1,8,8,09-02-2024 14.56,,
301,9821899419,0,WC20230125000257,,Hosting renewal,,2950,2950,1,450,0,Company ac,09-02-2024,09-02-2024,,,1,3,3,09-02-2024 16.00,,
302,,,WC20230125000258,caag.in,Dynamic website 5 pages ,,5900,5900,1,900,0,company account,19-02-2024,12-02-2024,,,1,8,8,12-02-2024 12.36,,
303,,,WC20230125000259,agoiludhiana.in,Domain + Hosting renewal ,,4956,4956,1,756,0,Company account,13-02-2024,13-02-2024,,,1,8,8,13-02-2024 14.47,,
304,7906683408,,WC20230125000260,rastriyahindusewak-sangh.in,Domain renewal ,,1416,1416,1,216,0,company account,13-02-2024,13-02-2024,,,1,8,8,13-02-2024 15.17,,
305,,,WC20230125000261,,bulk mail n bulk whatsapp,,24780,24780,1,3780,0,axis bank cheque no- 057026,14-02-2024,,,,1,1,1,14-02-2024 12.17,,
306,,,WC20230125000262,,4 pages static website+logo,,1000,2500,0,0,1500,,21-02-2024,,,,1,3,3,15-02-2024 12.48,,
307,9822166968,0,WC20230125000263,,"Domain Renewal: evergreenbarandrestaurant.com 
Email Boxes 1GB 
Web Hosting 
Domain: genesisfitness.co.in 
Email Boxes 1GB
",,6300,6300,0,0,0,Rima mam,15-02-2024,15-02-2024,,,1,3,3,15-02-2024 15.38,,
308,,,WC20230125000264,,4 pages static website with domain+hosting,,2000,3700,0,0,1700,,21-02-2024,,,,1,3,3,17-02-2024 10.01,,
309,6262408443,0,WC20230125000265,shrivastavcarrental.com,Static website 5 pages + Hosting ,,1500,3000,0,0,1500,Rima mam,24-02-2024,20-02-2024,,,1,8,8,19-02-2024 10.49,,
310,9960747404,0,WC20230125000266,http://www.jaynarayanindustries.com/,Domain + Hosting renewal ,,2596,2596,0,0,0,,19-02-2024,19-02-2024,,,1,8,8,19-02-2024 12.35,,
311,,,WC20230125000267,,Domain medearthhealthcare.com +hosting+1 mail box renewal,,5487,5487,1,837,0,Company ac,22-02-2024,21-02-2024,,,1,3,3,21-02-2024 10.09,,
312,,,WC20230125000268,latifahbouri.com,Domain + 5 mail id package ,,4400,4400,1,671,0,4400,21-02-2024,21-02-2024,,,1,8,8,21-02-2024 15.02,,
313,9987893810,0,WC20230125000269,,12 pages Static website,,4000,7000,0,0,3000,,28-02-2024,22-02-2024,,,1,3,3,22-02-2024 15.22,,
314,,,WC20230125000270,addangroup.com, Dynamic website 5 pages ,,1500,5000,0,0,3500,Rima mam,06-03-2024,28-02-2024,,,1,8,8,27-02-2024 13.55,,
315,9881396939,0,WC20230125000271,abhaykr158@icloud.com,Dynamic Website and email ,,14750,40710,1,6210,25960,off acc,09-03-2024,28-02-2024,,,1,1,1,29-02-2024 10.08,,
316,,,WC20230125000272,spaceadhyaan.com,Dynamic website 5 pages on wordpress,,2500,5500,0,0,3000,Rima mam,08-03-2024,01-03-2024,,,1,8,8,29-02-2024 15.15,,
317,,,WC20230125000273,caag.in,Dynamic website 5 pages ,,2500,5900,1,900,3400,company account,07-03-2024,01-03-2024,,,1,8,8,29-02-2024 17.57,,
